model;pk;fields/numero
app.Vendas;1;1
app.Vendas;2;2
app.Vendas;3;3
app.Vendas;4;4
app.Vendas;5;5
app.Vendas;6;6
app.Vendas;7;7
app.Vendas;8;8
app.Vendas;9;9
app.Vendas;10;10
app.Vendas;11;11
app.Vendas;12;12
app.Vendas;13;13
app.Vendas;14;14
app.Vendas;15;15
app.Vendas;16;16
app.Vendas;17;17
app.Vendas;18;18
app.Vendas;19;19
app.Vendas;20;20
app.Vendas;21;21
app.Vendas;22;22
app.Vendas;23;23
app.Vendas;24;24
app.Vendas;25;25
app.Vendas;26;26
app.Vendas;27;27
app.Vendas;28;28
app.Vendas;29;29
app.Vendas;30;30
app.Vendas;31;31
app.Vendas;32;32
app.Vendas;33;33
app.Vendas;34;34
app.Vendas;35;35
app.Vendas;36;36
app.Vendas;37;37
app.Vendas;38;38
app.Vendas;39;39
app.Vendas;40;40
app.Vendas;41;41
app.Vendas;42;42
app.Vendas;43;43
app.Vendas;44;44
app.Vendas;45;45
app.Vendas;46;46
app.Vendas;47;47
app.Vendas;48;48
app.Vendas;49;49
app.Vendas;50;50
app.Vendas;51;51
app.Vendas;52;52
app.Vendas;53;53
app.Vendas;54;54
app.Vendas;55;55
app.Vendas;56;56
app.Vendas;57;57
app.Vendas;58;58
app.Vendas;59;59
app.Vendas;60;60
app.Vendas;61;61
app.Vendas;62;62
app.Vendas;63;63
app.Vendas;64;64
app.Vendas;65;65
app.Vendas;66;66
app.Vendas;67;67
app.Vendas;68;68
app.Vendas;69;69
app.Vendas;70;70
app.Vendas;71;71
app.Vendas;72;72
app.Vendas;73;73
app.Vendas;74;74
app.Vendas;75;75
app.Vendas;76;76
app.Vendas;77;77
app.Vendas;78;78
app.Vendas;79;79
app.Vendas;80;80
app.Vendas;81;81
app.Vendas;82;82
app.Vendas;83;83
app.Vendas;84;84
app.Vendas;85;85
app.Vendas;86;86
app.Vendas;87;87
app.Vendas;88;88
app.Vendas;89;89
app.Vendas;90;90
app.Vendas;91;91
app.Vendas;92;92
app.Vendas;93;93
app.Vendas;94;94
app.Vendas;95;95
app.Vendas;96;96
app.Vendas;97;97
app.Vendas;98;98
app.Vendas;99;99
app.Vendas;100;100
app.Vendas;101;101
app.Vendas;102;102
app.Vendas;103;103
app.Vendas;104;104
app.Vendas;105;105
app.Vendas;106;106
app.Vendas;107;107
app.Vendas;108;108
app.Vendas;109;109
app.Vendas;110;110
app.Vendas;111;111
app.Vendas;112;112
app.Vendas;113;113
app.Vendas;114;114
app.Vendas;115;115
app.Vendas;116;116
app.Vendas;117;117
app.Vendas;118;118
app.Vendas;119;119
app.Vendas;120;120
app.Vendas;121;121
app.Vendas;122;122
app.Vendas;123;123
app.Vendas;124;124
app.Vendas;125;125
app.Vendas;126;126
app.Vendas;127;127
app.Vendas;128;128
app.Vendas;129;129
app.Vendas;130;130
app.Vendas;131;131
app.Vendas;132;132
app.Vendas;133;133
app.Vendas;134;134
app.Vendas;135;135
app.Vendas;136;136
app.Vendas;137;137
app.Vendas;138;138
app.Vendas;139;139
app.Vendas;140;140
app.Vendas;141;141
app.Vendas;142;142
app.Vendas;143;143
app.Vendas;144;144
app.Vendas;145;145
app.Vendas;146;146
app.Vendas;147;147
app.Vendas;148;148
app.Vendas;149;149
app.Vendas;150;150
app.Vendas;151;151
app.Vendas;152;152
app.Vendas;153;153
app.Vendas;154;154
app.Vendas;155;155
app.Vendas;156;156
app.Vendas;157;157
app.Vendas;158;158
app.Vendas;159;159
app.Vendas;160;160
app.Vendas;161;161
app.Vendas;162;162
app.Vendas;163;163
app.Vendas;164;164
app.Vendas;165;165
app.Vendas;166;166
app.Vendas;167;167
app.Vendas;168;168
app.Vendas;169;169
app.Vendas;170;170
app.Vendas;171;171
app.Vendas;172;172
app.Vendas;173;173
app.Vendas;174;174
app.Vendas;175;175
app.Vendas;176;176
app.Vendas;177;177
app.Vendas;178;178
app.Vendas;179;179
app.Vendas;180;180
app.Vendas;181;181
app.Vendas;182;182
app.Vendas;183;183
app.Vendas;184;184
app.Vendas;185;185
app.Vendas;186;186
app.Vendas;187;187
app.Vendas;188;188
app.Vendas;189;189
app.Vendas;190;190
app.Vendas;191;191
app.Vendas;192;192
app.Vendas;193;193
app.Vendas;194;194
app.Vendas;195;195
app.Vendas;196;196
app.Vendas;197;197
app.Vendas;198;198
app.Vendas;199;199
app.Vendas;200;200
app.Vendas;201;201
app.Vendas;202;202
app.Vendas;203;203
app.Vendas;204;204
app.Vendas;205;205
app.Vendas;206;206
app.Vendas;207;207
app.Vendas;208;208
app.Vendas;209;209
app.Vendas;210;210
app.Vendas;211;211
app.Vendas;212;212
app.Vendas;213;213
app.Vendas;214;214
app.Vendas;215;215
app.Vendas;216;216
app.Vendas;217;217
app.Vendas;218;218
app.Vendas;219;219
app.Vendas;220;220
app.Vendas;221;221
app.Vendas;222;222
app.Vendas;223;223
app.Vendas;224;224
app.Vendas;225;225
app.Vendas;226;226
app.Vendas;227;227
app.Vendas;228;228
app.Vendas;229;229
app.Vendas;230;230
app.Vendas;231;231
app.Vendas;232;232
app.Vendas;233;233
app.Vendas;234;234
app.Vendas;235;235
app.Vendas;236;236
app.Vendas;237;237
app.Vendas;238;238
app.Vendas;239;239
app.Vendas;240;240
app.Vendas;241;241
app.Vendas;242;242
app.Vendas;243;243
app.Vendas;244;244
app.Vendas;245;245
app.Vendas;246;246
app.Vendas;247;247
app.Vendas;248;248
app.Vendas;249;249
app.Vendas;250;250
app.Vendas;251;251
app.Vendas;252;252
app.Vendas;253;253
app.Vendas;254;254
app.Vendas;255;255
app.Vendas;256;256
app.Vendas;257;257
app.Vendas;258;258
app.Vendas;259;259
app.Vendas;260;260
app.Vendas;261;261
app.Vendas;262;262
app.Vendas;263;263
app.Vendas;264;264
app.Vendas;265;265
app.Vendas;266;266
app.Vendas;267;267
app.Vendas;268;268
app.Vendas;269;269
app.Vendas;270;270
app.Vendas;271;271
app.Vendas;272;272
app.Vendas;273;273
app.Vendas;274;274
app.Vendas;275;275
app.Vendas;276;276
app.Vendas;277;277
app.Vendas;278;278
app.Vendas;279;279
app.Vendas;280;280
app.Vendas;281;281
app.Vendas;282;282
app.Vendas;283;283
app.Vendas;284;284
app.Vendas;285;285
app.Vendas;286;286
app.Vendas;287;287
app.Vendas;288;288
app.Vendas;289;289
app.Vendas;290;290
app.Vendas;291;291
app.Vendas;292;292
app.Vendas;293;293
app.Vendas;294;294
app.Vendas;295;295
app.Vendas;296;296
app.Vendas;297;297
app.Vendas;298;298
app.Vendas;299;299
app.Vendas;300;300
app.Vendas;301;301
app.Vendas;302;302
app.Vendas;303;303
app.Vendas;304;304
app.Vendas;305;305
app.Vendas;306;306
app.Vendas;307;307
app.Vendas;308;308
app.Vendas;309;309
app.Vendas;310;310
app.Vendas;311;311
app.Vendas;312;312
app.Vendas;313;313
app.Vendas;314;314
app.Vendas;315;315
app.Vendas;316;316
app.Vendas;317;317
app.Vendas;318;318
app.Vendas;319;319
app.Vendas;320;320
app.Vendas;321;321
app.Vendas;322;322
app.Vendas;323;323
app.Vendas;324;324
app.Vendas;325;325
app.Vendas;326;326
app.Vendas;327;327
app.Vendas;328;328
app.Vendas;329;329
app.Vendas;330;330
app.Vendas;331;331
app.Vendas;332;332
app.Vendas;333;333
app.Vendas;334;334
app.Vendas;335;335
app.Vendas;336;336
app.Vendas;337;337
app.Vendas;338;338
app.Vendas;339;339
app.Vendas;340;340
app.Vendas;341;341
app.Vendas;342;342
app.Vendas;343;343
app.Vendas;344;344
app.Vendas;345;345
app.Vendas;346;346
app.Vendas;347;347
app.Vendas;348;348
app.Vendas;349;349
app.Vendas;350;350
app.Vendas;351;351
app.Vendas;352;352
app.Vendas;353;353
app.Vendas;354;354
app.Vendas;355;355
app.Vendas;356;356
app.Vendas;357;357
app.Vendas;358;358
app.Vendas;359;359
app.Vendas;360;360
app.Vendas;361;361
app.Vendas;362;362
app.Vendas;363;363
app.Vendas;364;364
app.Vendas;365;365
app.Vendas;366;366
app.Vendas;367;367
app.Vendas;368;368
app.Vendas;369;369
app.Vendas;370;370
app.Vendas;371;371
app.Vendas;372;372
app.Vendas;373;373
app.Vendas;374;374
app.Vendas;375;375
app.Vendas;376;376
app.Vendas;377;377
app.Vendas;378;378
app.Vendas;379;379
app.Vendas;380;380
app.Vendas;381;381
app.Vendas;382;382
app.Vendas;383;383
app.Vendas;384;384
app.Vendas;385;385
app.Vendas;386;386
app.Vendas;387;387
app.Vendas;388;388
app.Vendas;389;389
app.Vendas;390;390
app.Vendas;391;391
app.Vendas;392;392
app.Vendas;393;393
app.Vendas;394;394
app.Vendas;395;395
app.Vendas;396;396
app.Vendas;397;397
app.Vendas;398;398
app.Vendas;399;399
app.Vendas;400;400
app.Vendas;401;401
app.Vendas;402;402
app.Vendas;403;403
app.Vendas;404;404
app.Vendas;405;405
app.Vendas;406;406
app.Vendas;407;407
app.Vendas;408;408
app.Vendas;409;409
app.Vendas;410;410
app.Vendas;411;411
app.Vendas;412;412
app.Vendas;413;413
app.Vendas;414;414
app.Vendas;415;415
app.Vendas;416;416
app.Vendas;417;417
app.Vendas;418;418
app.Vendas;419;419
app.Vendas;420;420
app.Vendas;421;421
app.Vendas;422;422
app.Vendas;423;423
app.Vendas;424;424
app.Vendas;425;425
app.Vendas;426;426
app.Vendas;427;427
app.Vendas;428;428
app.Vendas;429;429
app.Vendas;430;430
app.Vendas;431;431
app.Vendas;432;432
app.Vendas;433;433
app.Vendas;434;434
app.Vendas;435;435
app.Vendas;436;436
app.Vendas;437;437
app.Vendas;438;438
app.Vendas;439;439
app.Vendas;440;440
app.Vendas;441;441
app.Vendas;442;442
app.Vendas;443;443
app.Vendas;444;444
app.Vendas;445;445
app.Vendas;446;446
app.Vendas;447;447
app.Vendas;448;448
app.Vendas;449;449
app.Vendas;450;450
app.Vendas;451;451
app.Vendas;452;452
app.Vendas;453;453
app.Vendas;454;454
app.Vendas;455;455
app.Vendas;456;456
app.Vendas;457;457
app.Vendas;458;458
app.Vendas;459;459
app.Vendas;460;460
app.Vendas;461;461
app.Vendas;462;462
app.Vendas;463;463
app.Vendas;464;464
app.Vendas;465;465
app.Vendas;466;466
app.Vendas;467;467
app.Vendas;468;468
app.Vendas;469;469
app.Vendas;470;470
app.Vendas;471;471
app.Vendas;472;472
app.Vendas;473;473
app.Vendas;474;474
app.Vendas;475;475
app.Vendas;476;476
app.Vendas;477;477
app.Vendas;478;478
app.Vendas;479;479
app.Vendas;480;480
app.Vendas;481;481
app.Vendas;482;482
app.Vendas;483;483
app.Vendas;484;484
app.Vendas;485;485
app.Vendas;486;486
app.Vendas;487;487
app.Vendas;488;488
app.Vendas;489;489
app.Vendas;490;490
app.Vendas;491;491
app.Vendas;492;492
app.Vendas;493;493
app.Vendas;494;494
app.Vendas;495;495
app.Vendas;496;496
app.Vendas;497;497
app.Vendas;498;498
app.Vendas;499;499
app.Vendas;500;500
app.Vendas;501;501
app.Vendas;502;502
app.Vendas;503;503
app.Vendas;504;504
app.Vendas;505;505
app.Vendas;506;506
app.Vendas;507;507
app.Vendas;508;508
app.Vendas;509;509
app.Vendas;510;510
app.Vendas;511;511
app.Vendas;512;512
app.Vendas;513;513
app.Vendas;514;514
app.Vendas;515;515
app.Vendas;516;516
app.Vendas;517;517
app.Vendas;518;518
app.Vendas;519;519
app.Vendas;520;520
app.Vendas;521;521
app.Vendas;522;522
app.Vendas;523;523
app.Vendas;524;524
app.Vendas;525;525
app.Vendas;526;526
app.Vendas;527;527
app.Vendas;528;528
app.Vendas;529;529
app.Vendas;530;530
app.Vendas;531;531
app.Vendas;532;532
app.Vendas;533;533
app.Vendas;534;534
app.Vendas;535;535
app.Vendas;536;536
app.Vendas;537;537
app.Vendas;538;538
app.Vendas;539;539
app.Vendas;540;540
app.Vendas;541;541
app.Vendas;542;542
app.Vendas;543;543
app.Vendas;544;544
app.Vendas;545;545
app.Vendas;546;546
app.Vendas;547;547
app.Vendas;548;548
app.Vendas;549;549
app.Vendas;550;550
app.Vendas;551;551
app.Vendas;552;552
app.Vendas;553;553
app.Vendas;554;554
app.Vendas;555;555
app.Vendas;556;556
app.Vendas;557;557
app.Vendas;558;558
app.Vendas;559;559
app.Vendas;560;560
app.Vendas;561;561
app.Vendas;562;562
app.Vendas;563;563
app.Vendas;564;564
app.Vendas;565;565
app.Vendas;566;566
app.Vendas;567;567
app.Vendas;568;568
app.Vendas;569;569
app.Vendas;570;570
app.Vendas;571;571
app.Vendas;572;572
app.Vendas;573;573
app.Vendas;574;574
app.Vendas;575;575
app.Vendas;576;576
app.Vendas;577;577
app.Vendas;578;578
app.Vendas;579;579
app.Vendas;580;580
app.Vendas;581;581
app.Vendas;582;582
app.Vendas;583;583
app.Vendas;584;584
app.Vendas;585;585
app.Vendas;586;586
app.Vendas;587;587
app.Vendas;588;588
app.Vendas;589;589
app.Vendas;590;590
app.Vendas;591;591
app.Vendas;592;592
app.Vendas;593;593
app.Vendas;594;594
app.Vendas;595;595
app.Vendas;596;596
app.Vendas;597;597
app.Vendas;598;598
app.Vendas;599;599
app.Vendas;600;600
app.Vendas;601;601
app.Vendas;602;602
app.Vendas;603;603
app.Vendas;604;604
app.Vendas;605;605
app.Vendas;606;606
app.Vendas;607;607
app.Vendas;608;608
app.Vendas;609;609
app.Vendas;610;610
app.Vendas;611;611
app.Vendas;612;612
app.Vendas;613;613
app.Vendas;614;614
app.Vendas;615;615
app.Vendas;616;616
app.Vendas;617;617
app.Vendas;618;618
app.Vendas;619;619
app.Vendas;620;620
app.Vendas;621;621
app.Vendas;622;622
app.Vendas;623;623
app.Vendas;624;624
app.Vendas;625;625
app.Vendas;626;626
app.Vendas;627;627
app.Vendas;628;628
app.Vendas;629;629
app.Vendas;630;630
app.Vendas;631;631
app.Vendas;632;632
app.Vendas;633;633
app.Vendas;634;634
app.Vendas;635;635
app.Vendas;636;636
app.Vendas;637;637
app.Vendas;638;638
app.Vendas;639;639
app.Vendas;640;640
app.Vendas;641;641
app.Vendas;642;642
app.Vendas;643;643
app.Vendas;644;644
app.Vendas;645;645
app.Vendas;646;646
app.Vendas;647;647
app.Vendas;648;648
app.Vendas;649;649
app.Vendas;650;650
app.Vendas;651;651
app.Vendas;652;652
app.Vendas;653;653
app.Vendas;654;654
app.Vendas;655;655
app.Vendas;656;656
app.Vendas;657;657
app.Vendas;658;658
app.Vendas;659;659
app.Vendas;660;660
app.Vendas;661;661
app.Vendas;662;662
app.Vendas;663;663
app.Vendas;664;664
app.Vendas;665;665
app.Vendas;666;666
app.Vendas;667;667
app.Vendas;668;668
app.Vendas;669;669
app.Vendas;670;670
app.Vendas;671;671
app.Vendas;672;672
app.Vendas;673;673
app.Vendas;674;674
app.Vendas;675;675
app.Vendas;676;676
app.Vendas;677;677
app.Vendas;678;678
app.Vendas;679;679
app.Vendas;680;680
app.Vendas;681;681
app.Vendas;682;682
app.Vendas;683;683
app.Vendas;684;684
app.Vendas;685;685
app.Vendas;686;686
app.Vendas;687;687
app.Vendas;688;688
app.Vendas;689;689
app.Vendas;690;690
app.Vendas;691;691
app.Vendas;692;692
app.Vendas;693;693
app.Vendas;694;694
app.Vendas;695;695
app.Vendas;696;696
app.Vendas;697;697
app.Vendas;698;698
app.Vendas;699;699
app.Vendas;700;700
app.Vendas;701;701
app.Vendas;702;702
app.Vendas;703;703
app.Vendas;704;704
app.Vendas;705;705
app.Vendas;706;706
app.Vendas;707;707
app.Vendas;708;708
app.Vendas;709;709
app.Vendas;710;710
app.Vendas;711;711
app.Vendas;712;712
app.Vendas;713;713
app.Vendas;714;714
app.Vendas;715;715
app.Vendas;716;716
app.Vendas;717;717
app.Vendas;718;718
app.Vendas;719;719
app.Vendas;720;720
app.Vendas;721;721
app.Vendas;722;722
app.Vendas;723;723
app.Vendas;724;724
app.Vendas;725;725
app.Vendas;726;726
app.Vendas;727;727
app.Vendas;728;728
app.Vendas;729;729
app.Vendas;730;730
app.Vendas;731;731
app.Vendas;732;732
app.Vendas;733;733
app.Vendas;734;734
app.Vendas;735;735
app.Vendas;736;736
app.Vendas;737;737
app.Vendas;738;738
app.Vendas;739;739
app.Vendas;740;740
app.Vendas;741;741
app.Vendas;742;742
app.Vendas;743;743
app.Vendas;744;744
app.Vendas;745;745
app.Vendas;746;746
app.Vendas;747;747
app.Vendas;748;748
app.Vendas;749;749
app.Vendas;750;750
app.Vendas;751;751
app.Vendas;752;752
app.Vendas;753;753
app.Vendas;754;754
app.Vendas;755;755
app.Vendas;756;756
app.Vendas;757;757
app.Vendas;758;758
app.Vendas;759;759
app.Vendas;760;760
app.Vendas;761;761
app.Vendas;762;762
app.Vendas;763;763
app.Vendas;764;764
app.Vendas;765;765
app.Vendas;766;766
app.Vendas;767;767
app.Vendas;768;768
app.Vendas;769;769
app.Vendas;770;770
app.Vendas;771;771
app.Vendas;772;772
app.Vendas;773;773
app.Vendas;774;774
app.Vendas;775;775
app.Vendas;776;776
app.Vendas;777;777
app.Vendas;778;778
app.Vendas;779;779
app.Vendas;780;780
app.Vendas;781;781
app.Vendas;782;782
app.Vendas;783;783
app.Vendas;784;784
app.Vendas;785;785
app.Vendas;786;786
app.Vendas;787;787
app.Vendas;788;788
app.Vendas;789;789
app.Vendas;790;790
app.Vendas;791;791
app.Vendas;792;792
app.Vendas;793;793
app.Vendas;794;794
app.Vendas;795;795
app.Vendas;796;796
app.Vendas;797;797
app.Vendas;798;798
app.Vendas;799;799
app.Vendas;800;800
app.Vendas;801;801
app.Vendas;802;802
app.Vendas;803;803
app.Vendas;804;804
app.Vendas;805;805
app.Vendas;806;806
app.Vendas;807;807
app.Vendas;808;808
app.Vendas;809;809
app.Vendas;810;810
app.Vendas;811;811
app.Vendas;812;812
app.Vendas;813;813
app.Vendas;814;814
app.Vendas;815;815
app.Vendas;816;816
app.Vendas;817;817
app.Vendas;818;818
app.Vendas;819;819
app.Vendas;820;820
app.Vendas;821;821
app.Vendas;822;822
app.Vendas;823;823
app.Vendas;824;824
app.Vendas;825;825
app.Vendas;826;826
app.Vendas;827;827
app.Vendas;828;828
app.Vendas;829;829
app.Vendas;830;830
app.Vendas;831;831
app.Vendas;832;832
app.Vendas;833;833
app.Vendas;834;834
app.Vendas;835;835
app.Vendas;836;836
app.Vendas;837;837
app.Vendas;838;838
app.Vendas;839;839
app.Vendas;840;840
app.Vendas;841;841
app.Vendas;842;842
app.Vendas;843;843
app.Vendas;844;844
app.Vendas;845;845
app.Vendas;846;846
app.Vendas;847;847
app.Vendas;848;848
app.Vendas;849;849
app.Vendas;850;850
app.Vendas;851;851
app.Vendas;852;852
app.Vendas;853;853
app.Vendas;854;854
app.Vendas;855;855
app.Vendas;856;856
app.Vendas;857;857
app.Vendas;858;858
app.Vendas;859;859
app.Vendas;860;860
app.Vendas;861;861
app.Vendas;862;862
app.Vendas;863;863
app.Vendas;864;864
app.Vendas;865;865
app.Vendas;866;866
app.Vendas;867;867
app.Vendas;868;868
app.Vendas;869;869
app.Vendas;870;870
app.Vendas;871;871
app.Vendas;872;872
app.Vendas;873;873
app.Vendas;874;874
app.Vendas;875;875
app.Vendas;876;876
app.Vendas;877;877
app.Vendas;878;878
app.Vendas;879;879
app.Vendas;880;880
app.Vendas;881;881
app.Vendas;882;882
app.Vendas;883;883
app.Vendas;884;884
app.Vendas;885;885
app.Vendas;886;886
app.Vendas;887;887
app.Vendas;888;888
app.Vendas;889;889
app.Vendas;890;890
app.Vendas;891;891
app.Vendas;892;892
app.Vendas;893;893
app.Vendas;894;894
app.Vendas;895;895
app.Vendas;896;896
app.Vendas;897;897
app.Vendas;898;898
app.Vendas;899;899
app.Vendas;900;900
app.Vendas;901;901
app.Vendas;902;902
app.Vendas;903;903
app.Vendas;904;904
app.Vendas;905;905
app.Vendas;906;906
app.Vendas;907;907
app.Vendas;908;908
app.Vendas;909;909
app.Vendas;910;910
app.Vendas;911;911
app.Vendas;912;912
app.Vendas;913;913
app.Vendas;914;914
app.Vendas;915;915
app.Vendas;916;916
app.Vendas;917;917
app.Vendas;918;918
app.Vendas;919;919
app.Vendas;920;920
app.Vendas;921;921
app.Vendas;922;922
app.Vendas;923;923
app.Vendas;924;924
app.Vendas;925;925
app.Vendas;926;926
app.Vendas;927;927
app.Vendas;928;928
app.Vendas;929;929
app.Vendas;930;930
app.Vendas;931;931
app.Vendas;932;932
app.Vendas;933;933
app.Vendas;934;934
app.Vendas;935;935
app.Vendas;936;936
app.Vendas;937;937
app.Vendas;938;938
app.Vendas;939;939
app.Vendas;940;940
app.Vendas;941;941
app.Vendas;942;942
app.Vendas;943;943
app.Vendas;944;944
app.Vendas;945;945
app.Vendas;946;946
app.Vendas;947;947
app.Vendas;948;948
app.Vendas;949;949
app.Vendas;950;950
app.Vendas;951;951
app.Vendas;952;952
app.Vendas;953;953
app.Vendas;954;954
app.Vendas;955;955
app.Vendas;956;956
app.Vendas;957;957
app.Vendas;958;958
app.Vendas;959;959
app.Vendas;960;960
app.Vendas;961;961
app.Vendas;962;962
app.Vendas;963;963
app.Vendas;964;964
app.Vendas;965;965
app.Vendas;966;966
app.Vendas;967;967
app.Vendas;968;968
app.Vendas;969;969
app.Vendas;970;970
app.Vendas;971;971
app.Vendas;972;972
app.Vendas;973;973
app.Vendas;974;974
app.Vendas;975;975
app.Vendas;976;976
app.Vendas;977;977
app.Vendas;978;978
app.Vendas;979;979
app.Vendas;980;980
app.Vendas;981;981
app.Vendas;982;982
app.Vendas;983;983
app.Vendas;984;984
app.Vendas;985;985
app.Vendas;986;986
app.Vendas;987;987
app.Vendas;988;988
app.Vendas;989;989
app.Vendas;990;990
app.Vendas;991;991
app.Vendas;992;992
app.Vendas;993;993
app.Vendas;994;994
app.Vendas;995;995
app.Vendas;996;996
app.Vendas;997;997
app.Vendas;998;998
app.Vendas;999;999
app.Vendas;1000;1000
