[
 {
   "model": "app.Numeros",
   "pk": 1,
   "fields": {
      "numero": 1
   }
},
 {
   "model": "app.Numeros",
   "pk": 2,
   "fields": {
      "numero": 2
   }
},
 {
   "model": "app.Numeros",
   "pk": 3,
   "fields": {
      "numero": 3
   }
},
 {
   "model": "app.Numeros",
   "pk": 4,
   "fields": {
      "numero": 4
   }
},
 {
   "model": "app.Numeros",
   "pk": 5,
   "fields": {
      "numero": 5
   }
},
 {
   "model": "app.Numeros",
   "pk": 6,
   "fields": {
      "numero": 6
   }
},
 {
   "model": "app.Numeros",
   "pk": 7,
   "fields": {
      "numero": 7
   }
},
 {
   "model": "app.Numeros",
   "pk": 8,
   "fields": {
      "numero": 8
   }
},
 {
   "model": "app.Numeros",
   "pk": 9,
   "fields": {
      "numero": 9
   }
},
 {
   "model": "app.Numeros",
   "pk": 10,
   "fields": {
      "numero": 10
   }
},
 {
   "model": "app.Numeros",
   "pk": 11,
   "fields": {
      "numero": 11
   }
},
 {
   "model": "app.Numeros",
   "pk": 12,
   "fields": {
      "numero": 12
   }
},
 {
   "model": "app.Numeros",
   "pk": 13,
   "fields": {
      "numero": 13
   }
},
 {
   "model": "app.Numeros",
   "pk": 14,
   "fields": {
      "numero": 14
   }
},
 {
   "model": "app.Numeros",
   "pk": 15,
   "fields": {
      "numero": 15
   }
},
 {
   "model": "app.Numeros",
   "pk": 16,
   "fields": {
      "numero": 16
   }
},
 {
   "model": "app.Numeros",
   "pk": 17,
   "fields": {
      "numero": 17
   }
},
 {
   "model": "app.Numeros",
   "pk": 18,
   "fields": {
      "numero": 18
   }
},
 {
   "model": "app.Numeros",
   "pk": 19,
   "fields": {
      "numero": 19
   }
},
 {
   "model": "app.Numeros",
   "pk": 20,
   "fields": {
      "numero": 20
   }
},
 {
   "model": "app.Numeros",
   "pk": 21,
   "fields": {
      "numero": 21
   }
},
 {
   "model": "app.Numeros",
   "pk": 22,
   "fields": {
      "numero": 22
   }
},
 {
   "model": "app.Numeros",
   "pk": 23,
   "fields": {
      "numero": 23
   }
},
 {
   "model": "app.Numeros",
   "pk": 24,
   "fields": {
      "numero": 24
   }
},
 {
   "model": "app.Numeros",
   "pk": 25,
   "fields": {
      "numero": 25
   }
},
 {
   "model": "app.Numeros",
   "pk": 26,
   "fields": {
      "numero": 26
   }
},
 {
   "model": "app.Numeros",
   "pk": 27,
   "fields": {
      "numero": 27
   }
},
 {
   "model": "app.Numeros",
   "pk": 28,
   "fields": {
      "numero": 28
   }
},
 {
   "model": "app.Numeros",
   "pk": 29,
   "fields": {
      "numero": 29
   }
},
 {
   "model": "app.Numeros",
   "pk": 30,
   "fields": {
      "numero": 30
   }
},
 {
   "model": "app.Numeros",
   "pk": 31,
   "fields": {
      "numero": 31
   }
},
 {
   "model": "app.Numeros",
   "pk": 32,
   "fields": {
      "numero": 32
   }
},
 {
   "model": "app.Numeros",
   "pk": 33,
   "fields": {
      "numero": 33
   }
},
 {
   "model": "app.Numeros",
   "pk": 34,
   "fields": {
      "numero": 34
   }
},
 {
   "model": "app.Numeros",
   "pk": 35,
   "fields": {
      "numero": 35
   }
},
 {
   "model": "app.Numeros",
   "pk": 36,
   "fields": {
      "numero": 36
   }
},
 {
   "model": "app.Numeros",
   "pk": 37,
   "fields": {
      "numero": 37
   }
},
 {
   "model": "app.Numeros",
   "pk": 38,
   "fields": {
      "numero": 38
   }
},
 {
   "model": "app.Numeros",
   "pk": 39,
   "fields": {
      "numero": 39
   }
},
 {
   "model": "app.Numeros",
   "pk": 40,
   "fields": {
      "numero": 40
   }
},
 {
   "model": "app.Numeros",
   "pk": 41,
   "fields": {
      "numero": 41
   }
},
 {
   "model": "app.Numeros",
   "pk": 42,
   "fields": {
      "numero": 42
   }
},
 {
   "model": "app.Numeros",
   "pk": 43,
   "fields": {
      "numero": 43
   }
},
 {
   "model": "app.Numeros",
   "pk": 44,
   "fields": {
      "numero": 44
   }
},
 {
   "model": "app.Numeros",
   "pk": 45,
   "fields": {
      "numero": 45
   }
},
 {
   "model": "app.Numeros",
   "pk": 46,
   "fields": {
      "numero": 46
   }
},
 {
   "model": "app.Numeros",
   "pk": 47,
   "fields": {
      "numero": 47
   }
},
 {
   "model": "app.Numeros",
   "pk": 48,
   "fields": {
      "numero": 48
   }
},
 {
   "model": "app.Numeros",
   "pk": 49,
   "fields": {
      "numero": 49
   }
},
 {
   "model": "app.Numeros",
   "pk": 50,
   "fields": {
      "numero": 50
   }
},
 {
   "model": "app.Numeros",
   "pk": 51,
   "fields": {
      "numero": 51
   }
},
 {
   "model": "app.Numeros",
   "pk": 52,
   "fields": {
      "numero": 52
   }
},
 {
   "model": "app.Numeros",
   "pk": 53,
   "fields": {
      "numero": 53
   }
},
 {
   "model": "app.Numeros",
   "pk": 54,
   "fields": {
      "numero": 54
   }
},
 {
   "model": "app.Numeros",
   "pk": 55,
   "fields": {
      "numero": 55
   }
},
 {
   "model": "app.Numeros",
   "pk": 56,
   "fields": {
      "numero": 56
   }
},
 {
   "model": "app.Numeros",
   "pk": 57,
   "fields": {
      "numero": 57
   }
},
 {
   "model": "app.Numeros",
   "pk": 58,
   "fields": {
      "numero": 58
   }
},
 {
   "model": "app.Numeros",
   "pk": 59,
   "fields": {
      "numero": 59
   }
},
 {
   "model": "app.Numeros",
   "pk": 60,
   "fields": {
      "numero": 60
   }
},
 {
   "model": "app.Numeros",
   "pk": 61,
   "fields": {
      "numero": 61
   }
},
 {
   "model": "app.Numeros",
   "pk": 62,
   "fields": {
      "numero": 62
   }
},
 {
   "model": "app.Numeros",
   "pk": 63,
   "fields": {
      "numero": 63
   }
},
 {
   "model": "app.Numeros",
   "pk": 64,
   "fields": {
      "numero": 64
   }
},
 {
   "model": "app.Numeros",
   "pk": 65,
   "fields": {
      "numero": 65
   }
},
 {
   "model": "app.Numeros",
   "pk": 66,
   "fields": {
      "numero": 66
   }
},
 {
   "model": "app.Numeros",
   "pk": 67,
   "fields": {
      "numero": 67
   }
},
 {
   "model": "app.Numeros",
   "pk": 68,
   "fields": {
      "numero": 68
   }
},
 {
   "model": "app.Numeros",
   "pk": 69,
   "fields": {
      "numero": 69
   }
},
 {
   "model": "app.Numeros",
   "pk": 70,
   "fields": {
      "numero": 70
   }
},
 {
   "model": "app.Numeros",
   "pk": 71,
   "fields": {
      "numero": 71
   }
},
 {
   "model": "app.Numeros",
   "pk": 72,
   "fields": {
      "numero": 72
   }
},
 {
   "model": "app.Numeros",
   "pk": 73,
   "fields": {
      "numero": 73
   }
},
 {
   "model": "app.Numeros",
   "pk": 74,
   "fields": {
      "numero": 74
   }
},
 {
   "model": "app.Numeros",
   "pk": 75,
   "fields": {
      "numero": 75
   }
},
 {
   "model": "app.Numeros",
   "pk": 76,
   "fields": {
      "numero": 76
   }
},
 {
   "model": "app.Numeros",
   "pk": 77,
   "fields": {
      "numero": 77
   }
},
 {
   "model": "app.Numeros",
   "pk": 78,
   "fields": {
      "numero": 78
   }
},
 {
   "model": "app.Numeros",
   "pk": 79,
   "fields": {
      "numero": 79
   }
},
 {
   "model": "app.Numeros",
   "pk": 80,
   "fields": {
      "numero": 80
   }
},
 {
   "model": "app.Numeros",
   "pk": 81,
   "fields": {
      "numero": 81
   }
},
 {
   "model": "app.Numeros",
   "pk": 82,
   "fields": {
      "numero": 82
   }
},
 {
   "model": "app.Numeros",
   "pk": 83,
   "fields": {
      "numero": 83
   }
},
 {
   "model": "app.Numeros",
   "pk": 84,
   "fields": {
      "numero": 84
   }
},
 {
   "model": "app.Numeros",
   "pk": 85,
   "fields": {
      "numero": 85
   }
},
 {
   "model": "app.Numeros",
   "pk": 86,
   "fields": {
      "numero": 86
   }
},
 {
   "model": "app.Numeros",
   "pk": 87,
   "fields": {
      "numero": 87
   }
},
 {
   "model": "app.Numeros",
   "pk": 88,
   "fields": {
      "numero": 88
   }
},
 {
   "model": "app.Numeros",
   "pk": 89,
   "fields": {
      "numero": 89
   }
},
 {
   "model": "app.Numeros",
   "pk": 90,
   "fields": {
      "numero": 90
   }
},
 {
   "model": "app.Numeros",
   "pk": 91,
   "fields": {
      "numero": 91
   }
},
 {
   "model": "app.Numeros",
   "pk": 92,
   "fields": {
      "numero": 92
   }
},
 {
   "model": "app.Numeros",
   "pk": 93,
   "fields": {
      "numero": 93
   }
},
 {
   "model": "app.Numeros",
   "pk": 94,
   "fields": {
      "numero": 94
   }
},
 {
   "model": "app.Numeros",
   "pk": 95,
   "fields": {
      "numero": 95
   }
},
 {
   "model": "app.Numeros",
   "pk": 96,
   "fields": {
      "numero": 96
   }
},
 {
   "model": "app.Numeros",
   "pk": 97,
   "fields": {
      "numero": 97
   }
},
 {
   "model": "app.Numeros",
   "pk": 98,
   "fields": {
      "numero": 98
   }
},
 {
   "model": "app.Numeros",
   "pk": 99,
   "fields": {
      "numero": 99
   }
},
 {
   "model": "app.Numeros",
   "pk": 100,
   "fields": {
      "numero": 100
   }
},
 {
   "model": "app.Numeros",
   "pk": 101,
   "fields": {
      "numero": 101
   }
},
 {
   "model": "app.Numeros",
   "pk": 102,
   "fields": {
      "numero": 102
   }
},
 {
   "model": "app.Numeros",
   "pk": 103,
   "fields": {
      "numero": 103
   }
},
 {
   "model": "app.Numeros",
   "pk": 104,
   "fields": {
      "numero": 104
   }
},
 {
   "model": "app.Numeros",
   "pk": 105,
   "fields": {
      "numero": 105
   }
},
 {
   "model": "app.Numeros",
   "pk": 106,
   "fields": {
      "numero": 106
   }
},
 {
   "model": "app.Numeros",
   "pk": 107,
   "fields": {
      "numero": 107
   }
},
 {
   "model": "app.Numeros",
   "pk": 108,
   "fields": {
      "numero": 108
   }
},
 {
   "model": "app.Numeros",
   "pk": 109,
   "fields": {
      "numero": 109
   }
},
 {
   "model": "app.Numeros",
   "pk": 110,
   "fields": {
      "numero": 110
   }
},
 {
   "model": "app.Numeros",
   "pk": 111,
   "fields": {
      "numero": 111
   }
},
 {
   "model": "app.Numeros",
   "pk": 112,
   "fields": {
      "numero": 112
   }
},
 {
   "model": "app.Numeros",
   "pk": 113,
   "fields": {
      "numero": 113
   }
},
 {
   "model": "app.Numeros",
   "pk": 114,
   "fields": {
      "numero": 114
   }
},
 {
   "model": "app.Numeros",
   "pk": 115,
   "fields": {
      "numero": 115
   }
},
 {
   "model": "app.Numeros",
   "pk": 116,
   "fields": {
      "numero": 116
   }
},
 {
   "model": "app.Numeros",
   "pk": 117,
   "fields": {
      "numero": 117
   }
},
 {
   "model": "app.Numeros",
   "pk": 118,
   "fields": {
      "numero": 118
   }
},
 {
   "model": "app.Numeros",
   "pk": 119,
   "fields": {
      "numero": 119
   }
},
 {
   "model": "app.Numeros",
   "pk": 120,
   "fields": {
      "numero": 120
   }
},
 {
   "model": "app.Numeros",
   "pk": 121,
   "fields": {
      "numero": 121
   }
},
 {
   "model": "app.Numeros",
   "pk": 122,
   "fields": {
      "numero": 122
   }
},
 {
   "model": "app.Numeros",
   "pk": 123,
   "fields": {
      "numero": 123
   }
},
 {
   "model": "app.Numeros",
   "pk": 124,
   "fields": {
      "numero": 124
   }
},
 {
   "model": "app.Numeros",
   "pk": 125,
   "fields": {
      "numero": 125
   }
},
 {
   "model": "app.Numeros",
   "pk": 126,
   "fields": {
      "numero": 126
   }
},
 {
   "model": "app.Numeros",
   "pk": 127,
   "fields": {
      "numero": 127
   }
},
 {
   "model": "app.Numeros",
   "pk": 128,
   "fields": {
      "numero": 128
   }
},
 {
   "model": "app.Numeros",
   "pk": 129,
   "fields": {
      "numero": 129
   }
},
 {
   "model": "app.Numeros",
   "pk": 130,
   "fields": {
      "numero": 130
   }
},
 {
   "model": "app.Numeros",
   "pk": 131,
   "fields": {
      "numero": 131
   }
},
 {
   "model": "app.Numeros",
   "pk": 132,
   "fields": {
      "numero": 132
   }
},
 {
   "model": "app.Numeros",
   "pk": 133,
   "fields": {
      "numero": 133
   }
},
 {
   "model": "app.Numeros",
   "pk": 134,
   "fields": {
      "numero": 134
   }
},
 {
   "model": "app.Numeros",
   "pk": 135,
   "fields": {
      "numero": 135
   }
},
 {
   "model": "app.Numeros",
   "pk": 136,
   "fields": {
      "numero": 136
   }
},
 {
   "model": "app.Numeros",
   "pk": 137,
   "fields": {
      "numero": 137
   }
},
 {
   "model": "app.Numeros",
   "pk": 138,
   "fields": {
      "numero": 138
   }
},
 {
   "model": "app.Numeros",
   "pk": 139,
   "fields": {
      "numero": 139
   }
},
 {
   "model": "app.Numeros",
   "pk": 140,
   "fields": {
      "numero": 140
   }
},
 {
   "model": "app.Numeros",
   "pk": 141,
   "fields": {
      "numero": 141
   }
},
 {
   "model": "app.Numeros",
   "pk": 142,
   "fields": {
      "numero": 142
   }
},
 {
   "model": "app.Numeros",
   "pk": 143,
   "fields": {
      "numero": 143
   }
},
 {
   "model": "app.Numeros",
   "pk": 144,
   "fields": {
      "numero": 144
   }
},
 {
   "model": "app.Numeros",
   "pk": 145,
   "fields": {
      "numero": 145
   }
},
 {
   "model": "app.Numeros",
   "pk": 146,
   "fields": {
      "numero": 146
   }
},
 {
   "model": "app.Numeros",
   "pk": 147,
   "fields": {
      "numero": 147
   }
},
 {
   "model": "app.Numeros",
   "pk": 148,
   "fields": {
      "numero": 148
   }
},
 {
   "model": "app.Numeros",
   "pk": 149,
   "fields": {
      "numero": 149
   }
},
 {
   "model": "app.Numeros",
   "pk": 150,
   "fields": {
      "numero": 150
   }
},
 {
   "model": "app.Numeros",
   "pk": 151,
   "fields": {
      "numero": 151
   }
},
 {
   "model": "app.Numeros",
   "pk": 152,
   "fields": {
      "numero": 152
   }
},
 {
   "model": "app.Numeros",
   "pk": 153,
   "fields": {
      "numero": 153
   }
},
 {
   "model": "app.Numeros",
   "pk": 154,
   "fields": {
      "numero": 154
   }
},
 {
   "model": "app.Numeros",
   "pk": 155,
   "fields": {
      "numero": 155
   }
},
 {
   "model": "app.Numeros",
   "pk": 156,
   "fields": {
      "numero": 156
   }
},
 {
   "model": "app.Numeros",
   "pk": 157,
   "fields": {
      "numero": 157
   }
},
 {
   "model": "app.Numeros",
   "pk": 158,
   "fields": {
      "numero": 158
   }
},
 {
   "model": "app.Numeros",
   "pk": 159,
   "fields": {
      "numero": 159
   }
},
 {
   "model": "app.Numeros",
   "pk": 160,
   "fields": {
      "numero": 160
   }
},
 {
   "model": "app.Numeros",
   "pk": 161,
   "fields": {
      "numero": 161
   }
},
 {
   "model": "app.Numeros",
   "pk": 162,
   "fields": {
      "numero": 162
   }
},
 {
   "model": "app.Numeros",
   "pk": 163,
   "fields": {
      "numero": 163
   }
},
 {
   "model": "app.Numeros",
   "pk": 164,
   "fields": {
      "numero": 164
   }
},
 {
   "model": "app.Numeros",
   "pk": 165,
   "fields": {
      "numero": 165
   }
},
 {
   "model": "app.Numeros",
   "pk": 166,
   "fields": {
      "numero": 166
   }
},
 {
   "model": "app.Numeros",
   "pk": 167,
   "fields": {
      "numero": 167
   }
},
 {
   "model": "app.Numeros",
   "pk": 168,
   "fields": {
      "numero": 168
   }
},
 {
   "model": "app.Numeros",
   "pk": 169,
   "fields": {
      "numero": 169
   }
},
 {
   "model": "app.Numeros",
   "pk": 170,
   "fields": {
      "numero": 170
   }
},
 {
   "model": "app.Numeros",
   "pk": 171,
   "fields": {
      "numero": 171
   }
},
 {
   "model": "app.Numeros",
   "pk": 172,
   "fields": {
      "numero": 172
   }
},
 {
   "model": "app.Numeros",
   "pk": 173,
   "fields": {
      "numero": 173
   }
},
 {
   "model": "app.Numeros",
   "pk": 174,
   "fields": {
      "numero": 174
   }
},
 {
   "model": "app.Numeros",
   "pk": 175,
   "fields": {
      "numero": 175
   }
},
 {
   "model": "app.Numeros",
   "pk": 176,
   "fields": {
      "numero": 176
   }
},
 {
   "model": "app.Numeros",
   "pk": 177,
   "fields": {
      "numero": 177
   }
},
 {
   "model": "app.Numeros",
   "pk": 178,
   "fields": {
      "numero": 178
   }
},
 {
   "model": "app.Numeros",
   "pk": 179,
   "fields": {
      "numero": 179
   }
},
 {
   "model": "app.Numeros",
   "pk": 180,
   "fields": {
      "numero": 180
   }
},
 {
   "model": "app.Numeros",
   "pk": 181,
   "fields": {
      "numero": 181
   }
},
 {
   "model": "app.Numeros",
   "pk": 182,
   "fields": {
      "numero": 182
   }
},
 {
   "model": "app.Numeros",
   "pk": 183,
   "fields": {
      "numero": 183
   }
},
 {
   "model": "app.Numeros",
   "pk": 184,
   "fields": {
      "numero": 184
   }
},
 {
   "model": "app.Numeros",
   "pk": 185,
   "fields": {
      "numero": 185
   }
},
 {
   "model": "app.Numeros",
   "pk": 186,
   "fields": {
      "numero": 186
   }
},
 {
   "model": "app.Numeros",
   "pk": 187,
   "fields": {
      "numero": 187
   }
},
 {
   "model": "app.Numeros",
   "pk": 188,
   "fields": {
      "numero": 188
   }
},
 {
   "model": "app.Numeros",
   "pk": 189,
   "fields": {
      "numero": 189
   }
},
 {
   "model": "app.Numeros",
   "pk": 190,
   "fields": {
      "numero": 190
   }
},
 {
   "model": "app.Numeros",
   "pk": 191,
   "fields": {
      "numero": 191
   }
},
 {
   "model": "app.Numeros",
   "pk": 192,
   "fields": {
      "numero": 192
   }
},
 {
   "model": "app.Numeros",
   "pk": 193,
   "fields": {
      "numero": 193
   }
},
 {
   "model": "app.Numeros",
   "pk": 194,
   "fields": {
      "numero": 194
   }
},
 {
   "model": "app.Numeros",
   "pk": 195,
   "fields": {
      "numero": 195
   }
},
 {
   "model": "app.Numeros",
   "pk": 196,
   "fields": {
      "numero": 196
   }
},
 {
   "model": "app.Numeros",
   "pk": 197,
   "fields": {
      "numero": 197
   }
},
 {
   "model": "app.Numeros",
   "pk": 198,
   "fields": {
      "numero": 198
   }
},
 {
   "model": "app.Numeros",
   "pk": 199,
   "fields": {
      "numero": 199
   }
},
 {
   "model": "app.Numeros",
   "pk": 200,
   "fields": {
      "numero": 200
   }
},
 {
   "model": "app.Numeros",
   "pk": 201,
   "fields": {
      "numero": 201
   }
},
 {
   "model": "app.Numeros",
   "pk": 202,
   "fields": {
      "numero": 202
   }
},
 {
   "model": "app.Numeros",
   "pk": 203,
   "fields": {
      "numero": 203
   }
},
 {
   "model": "app.Numeros",
   "pk": 204,
   "fields": {
      "numero": 204
   }
},
 {
   "model": "app.Numeros",
   "pk": 205,
   "fields": {
      "numero": 205
   }
},
 {
   "model": "app.Numeros",
   "pk": 206,
   "fields": {
      "numero": 206
   }
},
 {
   "model": "app.Numeros",
   "pk": 207,
   "fields": {
      "numero": 207
   }
},
 {
   "model": "app.Numeros",
   "pk": 208,
   "fields": {
      "numero": 208
   }
},
 {
   "model": "app.Numeros",
   "pk": 209,
   "fields": {
      "numero": 209
   }
},
 {
   "model": "app.Numeros",
   "pk": 210,
   "fields": {
      "numero": 210
   }
},
 {
   "model": "app.Numeros",
   "pk": 211,
   "fields": {
      "numero": 211
   }
},
 {
   "model": "app.Numeros",
   "pk": 212,
   "fields": {
      "numero": 212
   }
},
 {
   "model": "app.Numeros",
   "pk": 213,
   "fields": {
      "numero": 213
   }
},
 {
   "model": "app.Numeros",
   "pk": 214,
   "fields": {
      "numero": 214
   }
},
 {
   "model": "app.Numeros",
   "pk": 215,
   "fields": {
      "numero": 215
   }
},
 {
   "model": "app.Numeros",
   "pk": 216,
   "fields": {
      "numero": 216
   }
},
 {
   "model": "app.Numeros",
   "pk": 217,
   "fields": {
      "numero": 217
   }
},
 {
   "model": "app.Numeros",
   "pk": 218,
   "fields": {
      "numero": 218
   }
},
 {
   "model": "app.Numeros",
   "pk": 219,
   "fields": {
      "numero": 219
   }
},
 {
   "model": "app.Numeros",
   "pk": 220,
   "fields": {
      "numero": 220
   }
},
 {
   "model": "app.Numeros",
   "pk": 221,
   "fields": {
      "numero": 221
   }
},
 {
   "model": "app.Numeros",
   "pk": 222,
   "fields": {
      "numero": 222
   }
},
 {
   "model": "app.Numeros",
   "pk": 223,
   "fields": {
      "numero": 223
   }
},
 {
   "model": "app.Numeros",
   "pk": 224,
   "fields": {
      "numero": 224
   }
},
 {
   "model": "app.Numeros",
   "pk": 225,
   "fields": {
      "numero": 225
   }
},
 {
   "model": "app.Numeros",
   "pk": 226,
   "fields": {
      "numero": 226
   }
},
 {
   "model": "app.Numeros",
   "pk": 227,
   "fields": {
      "numero": 227
   }
},
 {
   "model": "app.Numeros",
   "pk": 228,
   "fields": {
      "numero": 228
   }
},
 {
   "model": "app.Numeros",
   "pk": 229,
   "fields": {
      "numero": 229
   }
},
 {
   "model": "app.Numeros",
   "pk": 230,
   "fields": {
      "numero": 230
   }
},
 {
   "model": "app.Numeros",
   "pk": 231,
   "fields": {
      "numero": 231
   }
},
 {
   "model": "app.Numeros",
   "pk": 232,
   "fields": {
      "numero": 232
   }
},
 {
   "model": "app.Numeros",
   "pk": 233,
   "fields": {
      "numero": 233
   }
},
 {
   "model": "app.Numeros",
   "pk": 234,
   "fields": {
      "numero": 234
   }
},
 {
   "model": "app.Numeros",
   "pk": 235,
   "fields": {
      "numero": 235
   }
},
 {
   "model": "app.Numeros",
   "pk": 236,
   "fields": {
      "numero": 236
   }
},
 {
   "model": "app.Numeros",
   "pk": 237,
   "fields": {
      "numero": 237
   }
},
 {
   "model": "app.Numeros",
   "pk": 238,
   "fields": {
      "numero": 238
   }
},
 {
   "model": "app.Numeros",
   "pk": 239,
   "fields": {
      "numero": 239
   }
},
 {
   "model": "app.Numeros",
   "pk": 240,
   "fields": {
      "numero": 240
   }
},
 {
   "model": "app.Numeros",
   "pk": 241,
   "fields": {
      "numero": 241
   }
},
 {
   "model": "app.Numeros",
   "pk": 242,
   "fields": {
      "numero": 242
   }
},
 {
   "model": "app.Numeros",
   "pk": 243,
   "fields": {
      "numero": 243
   }
},
 {
   "model": "app.Numeros",
   "pk": 244,
   "fields": {
      "numero": 244
   }
},
 {
   "model": "app.Numeros",
   "pk": 245,
   "fields": {
      "numero": 245
   }
},
 {
   "model": "app.Numeros",
   "pk": 246,
   "fields": {
      "numero": 246
   }
},
 {
   "model": "app.Numeros",
   "pk": 247,
   "fields": {
      "numero": 247
   }
},
 {
   "model": "app.Numeros",
   "pk": 248,
   "fields": {
      "numero": 248
   }
},
 {
   "model": "app.Numeros",
   "pk": 249,
   "fields": {
      "numero": 249
   }
},
 {
   "model": "app.Numeros",
   "pk": 250,
   "fields": {
      "numero": 250
   }
},
 {
   "model": "app.Numeros",
   "pk": 251,
   "fields": {
      "numero": 251
   }
},
 {
   "model": "app.Numeros",
   "pk": 252,
   "fields": {
      "numero": 252
   }
},
 {
   "model": "app.Numeros",
   "pk": 253,
   "fields": {
      "numero": 253
   }
},
 {
   "model": "app.Numeros",
   "pk": 254,
   "fields": {
      "numero": 254
   }
},
 {
   "model": "app.Numeros",
   "pk": 255,
   "fields": {
      "numero": 255
   }
},
 {
   "model": "app.Numeros",
   "pk": 256,
   "fields": {
      "numero": 256
   }
},
 {
   "model": "app.Numeros",
   "pk": 257,
   "fields": {
      "numero": 257
   }
},
 {
   "model": "app.Numeros",
   "pk": 258,
   "fields": {
      "numero": 258
   }
},
 {
   "model": "app.Numeros",
   "pk": 259,
   "fields": {
      "numero": 259
   }
},
 {
   "model": "app.Numeros",
   "pk": 260,
   "fields": {
      "numero": 260
   }
},
 {
   "model": "app.Numeros",
   "pk": 261,
   "fields": {
      "numero": 261
   }
},
 {
   "model": "app.Numeros",
   "pk": 262,
   "fields": {
      "numero": 262
   }
},
 {
   "model": "app.Numeros",
   "pk": 263,
   "fields": {
      "numero": 263
   }
},
 {
   "model": "app.Numeros",
   "pk": 264,
   "fields": {
      "numero": 264
   }
},
 {
   "model": "app.Numeros",
   "pk": 265,
   "fields": {
      "numero": 265
   }
},
 {
   "model": "app.Numeros",
   "pk": 266,
   "fields": {
      "numero": 266
   }
},
 {
   "model": "app.Numeros",
   "pk": 267,
   "fields": {
      "numero": 267
   }
},
 {
   "model": "app.Numeros",
   "pk": 268,
   "fields": {
      "numero": 268
   }
},
 {
   "model": "app.Numeros",
   "pk": 269,
   "fields": {
      "numero": 269
   }
},
 {
   "model": "app.Numeros",
   "pk": 270,
   "fields": {
      "numero": 270
   }
},
 {
   "model": "app.Numeros",
   "pk": 271,
   "fields": {
      "numero": 271
   }
},
 {
   "model": "app.Numeros",
   "pk": 272,
   "fields": {
      "numero": 272
   }
},
 {
   "model": "app.Numeros",
   "pk": 273,
   "fields": {
      "numero": 273
   }
},
 {
   "model": "app.Numeros",
   "pk": 274,
   "fields": {
      "numero": 274
   }
},
 {
   "model": "app.Numeros",
   "pk": 275,
   "fields": {
      "numero": 275
   }
},
 {
   "model": "app.Numeros",
   "pk": 276,
   "fields": {
      "numero": 276
   }
},
 {
   "model": "app.Numeros",
   "pk": 277,
   "fields": {
      "numero": 277
   }
},
 {
   "model": "app.Numeros",
   "pk": 278,
   "fields": {
      "numero": 278
   }
},
 {
   "model": "app.Numeros",
   "pk": 279,
   "fields": {
      "numero": 279
   }
},
 {
   "model": "app.Numeros",
   "pk": 280,
   "fields": {
      "numero": 280
   }
},
 {
   "model": "app.Numeros",
   "pk": 281,
   "fields": {
      "numero": 281
   }
},
 {
   "model": "app.Numeros",
   "pk": 282,
   "fields": {
      "numero": 282
   }
},
 {
   "model": "app.Numeros",
   "pk": 283,
   "fields": {
      "numero": 283
   }
},
 {
   "model": "app.Numeros",
   "pk": 284,
   "fields": {
      "numero": 284
   }
},
 {
   "model": "app.Numeros",
   "pk": 285,
   "fields": {
      "numero": 285
   }
},
 {
   "model": "app.Numeros",
   "pk": 286,
   "fields": {
      "numero": 286
   }
},
 {
   "model": "app.Numeros",
   "pk": 287,
   "fields": {
      "numero": 287
   }
},
 {
   "model": "app.Numeros",
   "pk": 288,
   "fields": {
      "numero": 288
   }
},
 {
   "model": "app.Numeros",
   "pk": 289,
   "fields": {
      "numero": 289
   }
},
 {
   "model": "app.Numeros",
   "pk": 290,
   "fields": {
      "numero": 290
   }
},
 {
   "model": "app.Numeros",
   "pk": 291,
   "fields": {
      "numero": 291
   }
},
 {
   "model": "app.Numeros",
   "pk": 292,
   "fields": {
      "numero": 292
   }
},
 {
   "model": "app.Numeros",
   "pk": 293,
   "fields": {
      "numero": 293
   }
},
 {
   "model": "app.Numeros",
   "pk": 294,
   "fields": {
      "numero": 294
   }
},
 {
   "model": "app.Numeros",
   "pk": 295,
   "fields": {
      "numero": 295
   }
},
 {
   "model": "app.Numeros",
   "pk": 296,
   "fields": {
      "numero": 296
   }
},
 {
   "model": "app.Numeros",
   "pk": 297,
   "fields": {
      "numero": 297
   }
},
 {
   "model": "app.Numeros",
   "pk": 298,
   "fields": {
      "numero": 298
   }
},
 {
   "model": "app.Numeros",
   "pk": 299,
   "fields": {
      "numero": 299
   }
},
 {
   "model": "app.Numeros",
   "pk": 300,
   "fields": {
      "numero": 300
   }
},
 {
   "model": "app.Numeros",
   "pk": 301,
   "fields": {
      "numero": 301
   }
},
 {
   "model": "app.Numeros",
   "pk": 302,
   "fields": {
      "numero": 302
   }
},
 {
   "model": "app.Numeros",
   "pk": 303,
   "fields": {
      "numero": 303
   }
},
 {
   "model": "app.Numeros",
   "pk": 304,
   "fields": {
      "numero": 304
   }
},
 {
   "model": "app.Numeros",
   "pk": 305,
   "fields": {
      "numero": 305
   }
},
 {
   "model": "app.Numeros",
   "pk": 306,
   "fields": {
      "numero": 306
   }
},
 {
   "model": "app.Numeros",
   "pk": 307,
   "fields": {
      "numero": 307
   }
},
 {
   "model": "app.Numeros",
   "pk": 308,
   "fields": {
      "numero": 308
   }
},
 {
   "model": "app.Numeros",
   "pk": 309,
   "fields": {
      "numero": 309
   }
},
 {
   "model": "app.Numeros",
   "pk": 310,
   "fields": {
      "numero": 310
   }
},
 {
   "model": "app.Numeros",
   "pk": 311,
   "fields": {
      "numero": 311
   }
},
 {
   "model": "app.Numeros",
   "pk": 312,
   "fields": {
      "numero": 312
   }
},
 {
   "model": "app.Numeros",
   "pk": 313,
   "fields": {
      "numero": 313
   }
},
 {
   "model": "app.Numeros",
   "pk": 314,
   "fields": {
      "numero": 314
   }
},
 {
   "model": "app.Numeros",
   "pk": 315,
   "fields": {
      "numero": 315
   }
},
 {
   "model": "app.Numeros",
   "pk": 316,
   "fields": {
      "numero": 316
   }
},
 {
   "model": "app.Numeros",
   "pk": 317,
   "fields": {
      "numero": 317
   }
},
 {
   "model": "app.Numeros",
   "pk": 318,
   "fields": {
      "numero": 318
   }
},
 {
   "model": "app.Numeros",
   "pk": 319,
   "fields": {
      "numero": 319
   }
},
 {
   "model": "app.Numeros",
   "pk": 320,
   "fields": {
      "numero": 320
   }
},
 {
   "model": "app.Numeros",
   "pk": 321,
   "fields": {
      "numero": 321
   }
},
 {
   "model": "app.Numeros",
   "pk": 322,
   "fields": {
      "numero": 322
   }
},
 {
   "model": "app.Numeros",
   "pk": 323,
   "fields": {
      "numero": 323
   }
},
 {
   "model": "app.Numeros",
   "pk": 324,
   "fields": {
      "numero": 324
   }
},
 {
   "model": "app.Numeros",
   "pk": 325,
   "fields": {
      "numero": 325
   }
},
 {
   "model": "app.Numeros",
   "pk": 326,
   "fields": {
      "numero": 326
   }
},
 {
   "model": "app.Numeros",
   "pk": 327,
   "fields": {
      "numero": 327
   }
},
 {
   "model": "app.Numeros",
   "pk": 328,
   "fields": {
      "numero": 328
   }
},
 {
   "model": "app.Numeros",
   "pk": 329,
   "fields": {
      "numero": 329
   }
},
 {
   "model": "app.Numeros",
   "pk": 330,
   "fields": {
      "numero": 330
   }
},
 {
   "model": "app.Numeros",
   "pk": 331,
   "fields": {
      "numero": 331
   }
},
 {
   "model": "app.Numeros",
   "pk": 332,
   "fields": {
      "numero": 332
   }
},
 {
   "model": "app.Numeros",
   "pk": 333,
   "fields": {
      "numero": 333
   }
},
 {
   "model": "app.Numeros",
   "pk": 334,
   "fields": {
      "numero": 334
   }
},
 {
   "model": "app.Numeros",
   "pk": 335,
   "fields": {
      "numero": 335
   }
},
 {
   "model": "app.Numeros",
   "pk": 336,
   "fields": {
      "numero": 336
   }
},
 {
   "model": "app.Numeros",
   "pk": 337,
   "fields": {
      "numero": 337
   }
},
 {
   "model": "app.Numeros",
   "pk": 338,
   "fields": {
      "numero": 338
   }
},
 {
   "model": "app.Numeros",
   "pk": 339,
   "fields": {
      "numero": 339
   }
},
 {
   "model": "app.Numeros",
   "pk": 340,
   "fields": {
      "numero": 340
   }
},
 {
   "model": "app.Numeros",
   "pk": 341,
   "fields": {
      "numero": 341
   }
},
 {
   "model": "app.Numeros",
   "pk": 342,
   "fields": {
      "numero": 342
   }
},
 {
   "model": "app.Numeros",
   "pk": 343,
   "fields": {
      "numero": 343
   }
},
 {
   "model": "app.Numeros",
   "pk": 344,
   "fields": {
      "numero": 344
   }
},
 {
   "model": "app.Numeros",
   "pk": 345,
   "fields": {
      "numero": 345
   }
},
 {
   "model": "app.Numeros",
   "pk": 346,
   "fields": {
      "numero": 346
   }
},
 {
   "model": "app.Numeros",
   "pk": 347,
   "fields": {
      "numero": 347
   }
},
 {
   "model": "app.Numeros",
   "pk": 348,
   "fields": {
      "numero": 348
   }
},
 {
   "model": "app.Numeros",
   "pk": 349,
   "fields": {
      "numero": 349
   }
},
 {
   "model": "app.Numeros",
   "pk": 350,
   "fields": {
      "numero": 350
   }
},
 {
   "model": "app.Numeros",
   "pk": 351,
   "fields": {
      "numero": 351
   }
},
 {
   "model": "app.Numeros",
   "pk": 352,
   "fields": {
      "numero": 352
   }
},
 {
   "model": "app.Numeros",
   "pk": 353,
   "fields": {
      "numero": 353
   }
},
 {
   "model": "app.Numeros",
   "pk": 354,
   "fields": {
      "numero": 354
   }
},
 {
   "model": "app.Numeros",
   "pk": 355,
   "fields": {
      "numero": 355
   }
},
 {
   "model": "app.Numeros",
   "pk": 356,
   "fields": {
      "numero": 356
   }
},
 {
   "model": "app.Numeros",
   "pk": 357,
   "fields": {
      "numero": 357
   }
},
 {
   "model": "app.Numeros",
   "pk": 358,
   "fields": {
      "numero": 358
   }
},
 {
   "model": "app.Numeros",
   "pk": 359,
   "fields": {
      "numero": 359
   }
},
 {
   "model": "app.Numeros",
   "pk": 360,
   "fields": {
      "numero": 360
   }
},
 {
   "model": "app.Numeros",
   "pk": 361,
   "fields": {
      "numero": 361
   }
},
 {
   "model": "app.Numeros",
   "pk": 362,
   "fields": {
      "numero": 362
   }
},
 {
   "model": "app.Numeros",
   "pk": 363,
   "fields": {
      "numero": 363
   }
},
 {
   "model": "app.Numeros",
   "pk": 364,
   "fields": {
      "numero": 364
   }
},
 {
   "model": "app.Numeros",
   "pk": 365,
   "fields": {
      "numero": 365
   }
},
 {
   "model": "app.Numeros",
   "pk": 366,
   "fields": {
      "numero": 366
   }
},
 {
   "model": "app.Numeros",
   "pk": 367,
   "fields": {
      "numero": 367
   }
},
 {
   "model": "app.Numeros",
   "pk": 368,
   "fields": {
      "numero": 368
   }
},
 {
   "model": "app.Numeros",
   "pk": 369,
   "fields": {
      "numero": 369
   }
},
 {
   "model": "app.Numeros",
   "pk": 370,
   "fields": {
      "numero": 370
   }
},
 {
   "model": "app.Numeros",
   "pk": 371,
   "fields": {
      "numero": 371
   }
},
 {
   "model": "app.Numeros",
   "pk": 372,
   "fields": {
      "numero": 372
   }
},
 {
   "model": "app.Numeros",
   "pk": 373,
   "fields": {
      "numero": 373
   }
},
 {
   "model": "app.Numeros",
   "pk": 374,
   "fields": {
      "numero": 374
   }
},
 {
   "model": "app.Numeros",
   "pk": 375,
   "fields": {
      "numero": 375
   }
},
 {
   "model": "app.Numeros",
   "pk": 376,
   "fields": {
      "numero": 376
   }
},
 {
   "model": "app.Numeros",
   "pk": 377,
   "fields": {
      "numero": 377
   }
},
 {
   "model": "app.Numeros",
   "pk": 378,
   "fields": {
      "numero": 378
   }
},
 {
   "model": "app.Numeros",
   "pk": 379,
   "fields": {
      "numero": 379
   }
},
 {
   "model": "app.Numeros",
   "pk": 380,
   "fields": {
      "numero": 380
   }
},
 {
   "model": "app.Numeros",
   "pk": 381,
   "fields": {
      "numero": 381
   }
},
 {
   "model": "app.Numeros",
   "pk": 382,
   "fields": {
      "numero": 382
   }
},
 {
   "model": "app.Numeros",
   "pk": 383,
   "fields": {
      "numero": 383
   }
},
 {
   "model": "app.Numeros",
   "pk": 384,
   "fields": {
      "numero": 384
   }
},
 {
   "model": "app.Numeros",
   "pk": 385,
   "fields": {
      "numero": 385
   }
},
 {
   "model": "app.Numeros",
   "pk": 386,
   "fields": {
      "numero": 386
   }
},
 {
   "model": "app.Numeros",
   "pk": 387,
   "fields": {
      "numero": 387
   }
},
 {
   "model": "app.Numeros",
   "pk": 388,
   "fields": {
      "numero": 388
   }
},
 {
   "model": "app.Numeros",
   "pk": 389,
   "fields": {
      "numero": 389
   }
},
 {
   "model": "app.Numeros",
   "pk": 390,
   "fields": {
      "numero": 390
   }
},
 {
   "model": "app.Numeros",
   "pk": 391,
   "fields": {
      "numero": 391
   }
},
 {
   "model": "app.Numeros",
   "pk": 392,
   "fields": {
      "numero": 392
   }
},
 {
   "model": "app.Numeros",
   "pk": 393,
   "fields": {
      "numero": 393
   }
},
 {
   "model": "app.Numeros",
   "pk": 394,
   "fields": {
      "numero": 394
   }
},
 {
   "model": "app.Numeros",
   "pk": 395,
   "fields": {
      "numero": 395
   }
},
 {
   "model": "app.Numeros",
   "pk": 396,
   "fields": {
      "numero": 396
   }
},
 {
   "model": "app.Numeros",
   "pk": 397,
   "fields": {
      "numero": 397
   }
},
 {
   "model": "app.Numeros",
   "pk": 398,
   "fields": {
      "numero": 398
   }
},
 {
   "model": "app.Numeros",
   "pk": 399,
   "fields": {
      "numero": 399
   }
},
 {
   "model": "app.Numeros",
   "pk": 400,
   "fields": {
      "numero": 400
   }
},
 {
   "model": "app.Numeros",
   "pk": 401,
   "fields": {
      "numero": 401
   }
},
 {
   "model": "app.Numeros",
   "pk": 402,
   "fields": {
      "numero": 402
   }
},
 {
   "model": "app.Numeros",
   "pk": 403,
   "fields": {
      "numero": 403
   }
},
 {
   "model": "app.Numeros",
   "pk": 404,
   "fields": {
      "numero": 404
   }
},
 {
   "model": "app.Numeros",
   "pk": 405,
   "fields": {
      "numero": 405
   }
},
 {
   "model": "app.Numeros",
   "pk": 406,
   "fields": {
      "numero": 406
   }
},
 {
   "model": "app.Numeros",
   "pk": 407,
   "fields": {
      "numero": 407
   }
},
 {
   "model": "app.Numeros",
   "pk": 408,
   "fields": {
      "numero": 408
   }
},
 {
   "model": "app.Numeros",
   "pk": 409,
   "fields": {
      "numero": 409
   }
},
 {
   "model": "app.Numeros",
   "pk": 410,
   "fields": {
      "numero": 410
   }
},
 {
   "model": "app.Numeros",
   "pk": 411,
   "fields": {
      "numero": 411
   }
},
 {
   "model": "app.Numeros",
   "pk": 412,
   "fields": {
      "numero": 412
   }
},
 {
   "model": "app.Numeros",
   "pk": 413,
   "fields": {
      "numero": 413
   }
},
 {
   "model": "app.Numeros",
   "pk": 414,
   "fields": {
      "numero": 414
   }
},
 {
   "model": "app.Numeros",
   "pk": 415,
   "fields": {
      "numero": 415
   }
},
 {
   "model": "app.Numeros",
   "pk": 416,
   "fields": {
      "numero": 416
   }
},
 {
   "model": "app.Numeros",
   "pk": 417,
   "fields": {
      "numero": 417
   }
},
 {
   "model": "app.Numeros",
   "pk": 418,
   "fields": {
      "numero": 418
   }
},
 {
   "model": "app.Numeros",
   "pk": 419,
   "fields": {
      "numero": 419
   }
},
 {
   "model": "app.Numeros",
   "pk": 420,
   "fields": {
      "numero": 420
   }
},
 {
   "model": "app.Numeros",
   "pk": 421,
   "fields": {
      "numero": 421
   }
},
 {
   "model": "app.Numeros",
   "pk": 422,
   "fields": {
      "numero": 422
   }
},
 {
   "model": "app.Numeros",
   "pk": 423,
   "fields": {
      "numero": 423
   }
},
 {
   "model": "app.Numeros",
   "pk": 424,
   "fields": {
      "numero": 424
   }
},
 {
   "model": "app.Numeros",
   "pk": 425,
   "fields": {
      "numero": 425
   }
},
 {
   "model": "app.Numeros",
   "pk": 426,
   "fields": {
      "numero": 426
   }
},
 {
   "model": "app.Numeros",
   "pk": 427,
   "fields": {
      "numero": 427
   }
},
 {
   "model": "app.Numeros",
   "pk": 428,
   "fields": {
      "numero": 428
   }
},
 {
   "model": "app.Numeros",
   "pk": 429,
   "fields": {
      "numero": 429
   }
},
 {
   "model": "app.Numeros",
   "pk": 430,
   "fields": {
      "numero": 430
   }
},
 {
   "model": "app.Numeros",
   "pk": 431,
   "fields": {
      "numero": 431
   }
},
 {
   "model": "app.Numeros",
   "pk": 432,
   "fields": {
      "numero": 432
   }
},
 {
   "model": "app.Numeros",
   "pk": 433,
   "fields": {
      "numero": 433
   }
},
 {
   "model": "app.Numeros",
   "pk": 434,
   "fields": {
      "numero": 434
   }
},
 {
   "model": "app.Numeros",
   "pk": 435,
   "fields": {
      "numero": 435
   }
},
 {
   "model": "app.Numeros",
   "pk": 436,
   "fields": {
      "numero": 436
   }
},
 {
   "model": "app.Numeros",
   "pk": 437,
   "fields": {
      "numero": 437
   }
},
 {
   "model": "app.Numeros",
   "pk": 438,
   "fields": {
      "numero": 438
   }
},
 {
   "model": "app.Numeros",
   "pk": 439,
   "fields": {
      "numero": 439
   }
},
 {
   "model": "app.Numeros",
   "pk": 440,
   "fields": {
      "numero": 440
   }
},
 {
   "model": "app.Numeros",
   "pk": 441,
   "fields": {
      "numero": 441
   }
},
 {
   "model": "app.Numeros",
   "pk": 442,
   "fields": {
      "numero": 442
   }
},
 {
   "model": "app.Numeros",
   "pk": 443,
   "fields": {
      "numero": 443
   }
},
 {
   "model": "app.Numeros",
   "pk": 444,
   "fields": {
      "numero": 444
   }
},
 {
   "model": "app.Numeros",
   "pk": 445,
   "fields": {
      "numero": 445
   }
},
 {
   "model": "app.Numeros",
   "pk": 446,
   "fields": {
      "numero": 446
   }
},
 {
   "model": "app.Numeros",
   "pk": 447,
   "fields": {
      "numero": 447
   }
},
 {
   "model": "app.Numeros",
   "pk": 448,
   "fields": {
      "numero": 448
   }
},
 {
   "model": "app.Numeros",
   "pk": 449,
   "fields": {
      "numero": 449
   }
},
 {
   "model": "app.Numeros",
   "pk": 450,
   "fields": {
      "numero": 450
   }
},
 {
   "model": "app.Numeros",
   "pk": 451,
   "fields": {
      "numero": 451
   }
},
 {
   "model": "app.Numeros",
   "pk": 452,
   "fields": {
      "numero": 452
   }
},
 {
   "model": "app.Numeros",
   "pk": 453,
   "fields": {
      "numero": 453
   }
},
 {
   "model": "app.Numeros",
   "pk": 454,
   "fields": {
      "numero": 454
   }
},
 {
   "model": "app.Numeros",
   "pk": 455,
   "fields": {
      "numero": 455
   }
},
 {
   "model": "app.Numeros",
   "pk": 456,
   "fields": {
      "numero": 456
   }
},
 {
   "model": "app.Numeros",
   "pk": 457,
   "fields": {
      "numero": 457
   }
},
 {
   "model": "app.Numeros",
   "pk": 458,
   "fields": {
      "numero": 458
   }
},
 {
   "model": "app.Numeros",
   "pk": 459,
   "fields": {
      "numero": 459
   }
},
 {
   "model": "app.Numeros",
   "pk": 460,
   "fields": {
      "numero": 460
   }
},
 {
   "model": "app.Numeros",
   "pk": 461,
   "fields": {
      "numero": 461
   }
},
 {
   "model": "app.Numeros",
   "pk": 462,
   "fields": {
      "numero": 462
   }
},
 {
   "model": "app.Numeros",
   "pk": 463,
   "fields": {
      "numero": 463
   }
},
 {
   "model": "app.Numeros",
   "pk": 464,
   "fields": {
      "numero": 464
   }
},
 {
   "model": "app.Numeros",
   "pk": 465,
   "fields": {
      "numero": 465
   }
},
 {
   "model": "app.Numeros",
   "pk": 466,
   "fields": {
      "numero": 466
   }
},
 {
   "model": "app.Numeros",
   "pk": 467,
   "fields": {
      "numero": 467
   }
},
 {
   "model": "app.Numeros",
   "pk": 468,
   "fields": {
      "numero": 468
   }
},
 {
   "model": "app.Numeros",
   "pk": 469,
   "fields": {
      "numero": 469
   }
},
 {
   "model": "app.Numeros",
   "pk": 470,
   "fields": {
      "numero": 470
   }
},
 {
   "model": "app.Numeros",
   "pk": 471,
   "fields": {
      "numero": 471
   }
},
 {
   "model": "app.Numeros",
   "pk": 472,
   "fields": {
      "numero": 472
   }
},
 {
   "model": "app.Numeros",
   "pk": 473,
   "fields": {
      "numero": 473
   }
},
 {
   "model": "app.Numeros",
   "pk": 474,
   "fields": {
      "numero": 474
   }
},
 {
   "model": "app.Numeros",
   "pk": 475,
   "fields": {
      "numero": 475
   }
},
 {
   "model": "app.Numeros",
   "pk": 476,
   "fields": {
      "numero": 476
   }
},
 {
   "model": "app.Numeros",
   "pk": 477,
   "fields": {
      "numero": 477
   }
},
 {
   "model": "app.Numeros",
   "pk": 478,
   "fields": {
      "numero": 478
   }
},
 {
   "model": "app.Numeros",
   "pk": 479,
   "fields": {
      "numero": 479
   }
},
 {
   "model": "app.Numeros",
   "pk": 480,
   "fields": {
      "numero": 480
   }
},
 {
   "model": "app.Numeros",
   "pk": 481,
   "fields": {
      "numero": 481
   }
},
 {
   "model": "app.Numeros",
   "pk": 482,
   "fields": {
      "numero": 482
   }
},
 {
   "model": "app.Numeros",
   "pk": 483,
   "fields": {
      "numero": 483
   }
},
 {
   "model": "app.Numeros",
   "pk": 484,
   "fields": {
      "numero": 484
   }
},
 {
   "model": "app.Numeros",
   "pk": 485,
   "fields": {
      "numero": 485
   }
},
 {
   "model": "app.Numeros",
   "pk": 486,
   "fields": {
      "numero": 486
   }
},
 {
   "model": "app.Numeros",
   "pk": 487,
   "fields": {
      "numero": 487
   }
},
 {
   "model": "app.Numeros",
   "pk": 488,
   "fields": {
      "numero": 488
   }
},
 {
   "model": "app.Numeros",
   "pk": 489,
   "fields": {
      "numero": 489
   }
},
 {
   "model": "app.Numeros",
   "pk": 490,
   "fields": {
      "numero": 490
   }
},
 {
   "model": "app.Numeros",
   "pk": 491,
   "fields": {
      "numero": 491
   }
},
 {
   "model": "app.Numeros",
   "pk": 492,
   "fields": {
      "numero": 492
   }
},
 {
   "model": "app.Numeros",
   "pk": 493,
   "fields": {
      "numero": 493
   }
},
 {
   "model": "app.Numeros",
   "pk": 494,
   "fields": {
      "numero": 494
   }
},
 {
   "model": "app.Numeros",
   "pk": 495,
   "fields": {
      "numero": 495
   }
},
 {
   "model": "app.Numeros",
   "pk": 496,
   "fields": {
      "numero": 496
   }
},
 {
   "model": "app.Numeros",
   "pk": 497,
   "fields": {
      "numero": 497
   }
},
 {
   "model": "app.Numeros",
   "pk": 498,
   "fields": {
      "numero": 498
   }
},
 {
   "model": "app.Numeros",
   "pk": 499,
   "fields": {
      "numero": 499
   }
},
 {
   "model": "app.Numeros",
   "pk": 500,
   "fields": {
      "numero": 500
   }
},
 {
   "model": "app.Numeros",
   "pk": 501,
   "fields": {
      "numero": 501
   }
},
 {
   "model": "app.Numeros",
   "pk": 502,
   "fields": {
      "numero": 502
   }
},
 {
   "model": "app.Numeros",
   "pk": 503,
   "fields": {
      "numero": 503
   }
},
 {
   "model": "app.Numeros",
   "pk": 504,
   "fields": {
      "numero": 504
   }
},
 {
   "model": "app.Numeros",
   "pk": 505,
   "fields": {
      "numero": 505
   }
},
 {
   "model": "app.Numeros",
   "pk": 506,
   "fields": {
      "numero": 506
   }
},
 {
   "model": "app.Numeros",
   "pk": 507,
   "fields": {
      "numero": 507
   }
},
 {
   "model": "app.Numeros",
   "pk": 508,
   "fields": {
      "numero": 508
   }
},
 {
   "model": "app.Numeros",
   "pk": 509,
   "fields": {
      "numero": 509
   }
},
 {
   "model": "app.Numeros",
   "pk": 510,
   "fields": {
      "numero": 510
   }
},
 {
   "model": "app.Numeros",
   "pk": 511,
   "fields": {
      "numero": 511
   }
},
 {
   "model": "app.Numeros",
   "pk": 512,
   "fields": {
      "numero": 512
   }
},
 {
   "model": "app.Numeros",
   "pk": 513,
   "fields": {
      "numero": 513
   }
},
 {
   "model": "app.Numeros",
   "pk": 514,
   "fields": {
      "numero": 514
   }
},
 {
   "model": "app.Numeros",
   "pk": 515,
   "fields": {
      "numero": 515
   }
},
 {
   "model": "app.Numeros",
   "pk": 516,
   "fields": {
      "numero": 516
   }
},
 {
   "model": "app.Numeros",
   "pk": 517,
   "fields": {
      "numero": 517
   }
},
 {
   "model": "app.Numeros",
   "pk": 518,
   "fields": {
      "numero": 518
   }
},
 {
   "model": "app.Numeros",
   "pk": 519,
   "fields": {
      "numero": 519
   }
},
 {
   "model": "app.Numeros",
   "pk": 520,
   "fields": {
      "numero": 520
   }
},
 {
   "model": "app.Numeros",
   "pk": 521,
   "fields": {
      "numero": 521
   }
},
 {
   "model": "app.Numeros",
   "pk": 522,
   "fields": {
      "numero": 522
   }
},
 {
   "model": "app.Numeros",
   "pk": 523,
   "fields": {
      "numero": 523
   }
},
 {
   "model": "app.Numeros",
   "pk": 524,
   "fields": {
      "numero": 524
   }
},
 {
   "model": "app.Numeros",
   "pk": 525,
   "fields": {
      "numero": 525
   }
},
 {
   "model": "app.Numeros",
   "pk": 526,
   "fields": {
      "numero": 526
   }
},
 {
   "model": "app.Numeros",
   "pk": 527,
   "fields": {
      "numero": 527
   }
},
 {
   "model": "app.Numeros",
   "pk": 528,
   "fields": {
      "numero": 528
   }
},
 {
   "model": "app.Numeros",
   "pk": 529,
   "fields": {
      "numero": 529
   }
},
 {
   "model": "app.Numeros",
   "pk": 530,
   "fields": {
      "numero": 530
   }
},
 {
   "model": "app.Numeros",
   "pk": 531,
   "fields": {
      "numero": 531
   }
},
 {
   "model": "app.Numeros",
   "pk": 532,
   "fields": {
      "numero": 532
   }
},
 {
   "model": "app.Numeros",
   "pk": 533,
   "fields": {
      "numero": 533
   }
},
 {
   "model": "app.Numeros",
   "pk": 534,
   "fields": {
      "numero": 534
   }
},
 {
   "model": "app.Numeros",
   "pk": 535,
   "fields": {
      "numero": 535
   }
},
 {
   "model": "app.Numeros",
   "pk": 536,
   "fields": {
      "numero": 536
   }
},
 {
   "model": "app.Numeros",
   "pk": 537,
   "fields": {
      "numero": 537
   }
},
 {
   "model": "app.Numeros",
   "pk": 538,
   "fields": {
      "numero": 538
   }
},
 {
   "model": "app.Numeros",
   "pk": 539,
   "fields": {
      "numero": 539
   }
},
 {
   "model": "app.Numeros",
   "pk": 540,
   "fields": {
      "numero": 540
   }
},
 {
   "model": "app.Numeros",
   "pk": 541,
   "fields": {
      "numero": 541
   }
},
 {
   "model": "app.Numeros",
   "pk": 542,
   "fields": {
      "numero": 542
   }
},
 {
   "model": "app.Numeros",
   "pk": 543,
   "fields": {
      "numero": 543
   }
},
 {
   "model": "app.Numeros",
   "pk": 544,
   "fields": {
      "numero": 544
   }
},
 {
   "model": "app.Numeros",
   "pk": 545,
   "fields": {
      "numero": 545
   }
},
 {
   "model": "app.Numeros",
   "pk": 546,
   "fields": {
      "numero": 546
   }
},
 {
   "model": "app.Numeros",
   "pk": 547,
   "fields": {
      "numero": 547
   }
},
 {
   "model": "app.Numeros",
   "pk": 548,
   "fields": {
      "numero": 548
   }
},
 {
   "model": "app.Numeros",
   "pk": 549,
   "fields": {
      "numero": 549
   }
},
 {
   "model": "app.Numeros",
   "pk": 550,
   "fields": {
      "numero": 550
   }
},
 {
   "model": "app.Numeros",
   "pk": 551,
   "fields": {
      "numero": 551
   }
},
 {
   "model": "app.Numeros",
   "pk": 552,
   "fields": {
      "numero": 552
   }
},
 {
   "model": "app.Numeros",
   "pk": 553,
   "fields": {
      "numero": 553
   }
},
 {
   "model": "app.Numeros",
   "pk": 554,
   "fields": {
      "numero": 554
   }
},
 {
   "model": "app.Numeros",
   "pk": 555,
   "fields": {
      "numero": 555
   }
},
 {
   "model": "app.Numeros",
   "pk": 556,
   "fields": {
      "numero": 556
   }
},
 {
   "model": "app.Numeros",
   "pk": 557,
   "fields": {
      "numero": 557
   }
},
 {
   "model": "app.Numeros",
   "pk": 558,
   "fields": {
      "numero": 558
   }
},
 {
   "model": "app.Numeros",
   "pk": 559,
   "fields": {
      "numero": 559
   }
},
 {
   "model": "app.Numeros",
   "pk": 560,
   "fields": {
      "numero": 560
   }
},
 {
   "model": "app.Numeros",
   "pk": 561,
   "fields": {
      "numero": 561
   }
},
 {
   "model": "app.Numeros",
   "pk": 562,
   "fields": {
      "numero": 562
   }
},
 {
   "model": "app.Numeros",
   "pk": 563,
   "fields": {
      "numero": 563
   }
},
 {
   "model": "app.Numeros",
   "pk": 564,
   "fields": {
      "numero": 564
   }
},
 {
   "model": "app.Numeros",
   "pk": 565,
   "fields": {
      "numero": 565
   }
},
 {
   "model": "app.Numeros",
   "pk": 566,
   "fields": {
      "numero": 566
   }
},
 {
   "model": "app.Numeros",
   "pk": 567,
   "fields": {
      "numero": 567
   }
},
 {
   "model": "app.Numeros",
   "pk": 568,
   "fields": {
      "numero": 568
   }
},
 {
   "model": "app.Numeros",
   "pk": 569,
   "fields": {
      "numero": 569
   }
},
 {
   "model": "app.Numeros",
   "pk": 570,
   "fields": {
      "numero": 570
   }
},
 {
   "model": "app.Numeros",
   "pk": 571,
   "fields": {
      "numero": 571
   }
},
 {
   "model": "app.Numeros",
   "pk": 572,
   "fields": {
      "numero": 572
   }
},
 {
   "model": "app.Numeros",
   "pk": 573,
   "fields": {
      "numero": 573
   }
},
 {
   "model": "app.Numeros",
   "pk": 574,
   "fields": {
      "numero": 574
   }
},
 {
   "model": "app.Numeros",
   "pk": 575,
   "fields": {
      "numero": 575
   }
},
 {
   "model": "app.Numeros",
   "pk": 576,
   "fields": {
      "numero": 576
   }
},
 {
   "model": "app.Numeros",
   "pk": 577,
   "fields": {
      "numero": 577
   }
},
 {
   "model": "app.Numeros",
   "pk": 578,
   "fields": {
      "numero": 578
   }
},
 {
   "model": "app.Numeros",
   "pk": 579,
   "fields": {
      "numero": 579
   }
},
 {
   "model": "app.Numeros",
   "pk": 580,
   "fields": {
      "numero": 580
   }
},
 {
   "model": "app.Numeros",
   "pk": 581,
   "fields": {
      "numero": 581
   }
},
 {
   "model": "app.Numeros",
   "pk": 582,
   "fields": {
      "numero": 582
   }
},
 {
   "model": "app.Numeros",
   "pk": 583,
   "fields": {
      "numero": 583
   }
},
 {
   "model": "app.Numeros",
   "pk": 584,
   "fields": {
      "numero": 584
   }
},
 {
   "model": "app.Numeros",
   "pk": 585,
   "fields": {
      "numero": 585
   }
},
 {
   "model": "app.Numeros",
   "pk": 586,
   "fields": {
      "numero": 586
   }
},
 {
   "model": "app.Numeros",
   "pk": 587,
   "fields": {
      "numero": 587
   }
},
 {
   "model": "app.Numeros",
   "pk": 588,
   "fields": {
      "numero": 588
   }
},
 {
   "model": "app.Numeros",
   "pk": 589,
   "fields": {
      "numero": 589
   }
},
 {
   "model": "app.Numeros",
   "pk": 590,
   "fields": {
      "numero": 590
   }
},
 {
   "model": "app.Numeros",
   "pk": 591,
   "fields": {
      "numero": 591
   }
},
 {
   "model": "app.Numeros",
   "pk": 592,
   "fields": {
      "numero": 592
   }
},
 {
   "model": "app.Numeros",
   "pk": 593,
   "fields": {
      "numero": 593
   }
},
 {
   "model": "app.Numeros",
   "pk": 594,
   "fields": {
      "numero": 594
   }
},
 {
   "model": "app.Numeros",
   "pk": 595,
   "fields": {
      "numero": 595
   }
},
 {
   "model": "app.Numeros",
   "pk": 596,
   "fields": {
      "numero": 596
   }
},
 {
   "model": "app.Numeros",
   "pk": 597,
   "fields": {
      "numero": 597
   }
},
 {
   "model": "app.Numeros",
   "pk": 598,
   "fields": {
      "numero": 598
   }
},
 {
   "model": "app.Numeros",
   "pk": 599,
   "fields": {
      "numero": 599
   }
},
 {
   "model": "app.Numeros",
   "pk": 600,
   "fields": {
      "numero": 600
   }
},
 {
   "model": "app.Numeros",
   "pk": 601,
   "fields": {
      "numero": 601
   }
},
 {
   "model": "app.Numeros",
   "pk": 602,
   "fields": {
      "numero": 602
   }
},
 {
   "model": "app.Numeros",
   "pk": 603,
   "fields": {
      "numero": 603
   }
},
 {
   "model": "app.Numeros",
   "pk": 604,
   "fields": {
      "numero": 604
   }
},
 {
   "model": "app.Numeros",
   "pk": 605,
   "fields": {
      "numero": 605
   }
},
 {
   "model": "app.Numeros",
   "pk": 606,
   "fields": {
      "numero": 606
   }
},
 {
   "model": "app.Numeros",
   "pk": 607,
   "fields": {
      "numero": 607
   }
},
 {
   "model": "app.Numeros",
   "pk": 608,
   "fields": {
      "numero": 608
   }
},
 {
   "model": "app.Numeros",
   "pk": 609,
   "fields": {
      "numero": 609
   }
},
 {
   "model": "app.Numeros",
   "pk": 610,
   "fields": {
      "numero": 610
   }
},
 {
   "model": "app.Numeros",
   "pk": 611,
   "fields": {
      "numero": 611
   }
},
 {
   "model": "app.Numeros",
   "pk": 612,
   "fields": {
      "numero": 612
   }
},
 {
   "model": "app.Numeros",
   "pk": 613,
   "fields": {
      "numero": 613
   }
},
 {
   "model": "app.Numeros",
   "pk": 614,
   "fields": {
      "numero": 614
   }
},
 {
   "model": "app.Numeros",
   "pk": 615,
   "fields": {
      "numero": 615
   }
},
 {
   "model": "app.Numeros",
   "pk": 616,
   "fields": {
      "numero": 616
   }
},
 {
   "model": "app.Numeros",
   "pk": 617,
   "fields": {
      "numero": 617
   }
},
 {
   "model": "app.Numeros",
   "pk": 618,
   "fields": {
      "numero": 618
   }
},
 {
   "model": "app.Numeros",
   "pk": 619,
   "fields": {
      "numero": 619
   }
},
 {
   "model": "app.Numeros",
   "pk": 620,
   "fields": {
      "numero": 620
   }
},
 {
   "model": "app.Numeros",
   "pk": 621,
   "fields": {
      "numero": 621
   }
},
 {
   "model": "app.Numeros",
   "pk": 622,
   "fields": {
      "numero": 622
   }
},
 {
   "model": "app.Numeros",
   "pk": 623,
   "fields": {
      "numero": 623
   }
},
 {
   "model": "app.Numeros",
   "pk": 624,
   "fields": {
      "numero": 624
   }
},
 {
   "model": "app.Numeros",
   "pk": 625,
   "fields": {
      "numero": 625
   }
},
 {
   "model": "app.Numeros",
   "pk": 626,
   "fields": {
      "numero": 626
   }
},
 {
   "model": "app.Numeros",
   "pk": 627,
   "fields": {
      "numero": 627
   }
},
 {
   "model": "app.Numeros",
   "pk": 628,
   "fields": {
      "numero": 628
   }
},
 {
   "model": "app.Numeros",
   "pk": 629,
   "fields": {
      "numero": 629
   }
},
 {
   "model": "app.Numeros",
   "pk": 630,
   "fields": {
      "numero": 630
   }
},
 {
   "model": "app.Numeros",
   "pk": 631,
   "fields": {
      "numero": 631
   }
},
 {
   "model": "app.Numeros",
   "pk": 632,
   "fields": {
      "numero": 632
   }
},
 {
   "model": "app.Numeros",
   "pk": 633,
   "fields": {
      "numero": 633
   }
},
 {
   "model": "app.Numeros",
   "pk": 634,
   "fields": {
      "numero": 634
   }
},
 {
   "model": "app.Numeros",
   "pk": 635,
   "fields": {
      "numero": 635
   }
},
 {
   "model": "app.Numeros",
   "pk": 636,
   "fields": {
      "numero": 636
   }
},
 {
   "model": "app.Numeros",
   "pk": 637,
   "fields": {
      "numero": 637
   }
},
 {
   "model": "app.Numeros",
   "pk": 638,
   "fields": {
      "numero": 638
   }
},
 {
   "model": "app.Numeros",
   "pk": 639,
   "fields": {
      "numero": 639
   }
},
 {
   "model": "app.Numeros",
   "pk": 640,
   "fields": {
      "numero": 640
   }
},
 {
   "model": "app.Numeros",
   "pk": 641,
   "fields": {
      "numero": 641
   }
},
 {
   "model": "app.Numeros",
   "pk": 642,
   "fields": {
      "numero": 642
   }
},
 {
   "model": "app.Numeros",
   "pk": 643,
   "fields": {
      "numero": 643
   }
},
 {
   "model": "app.Numeros",
   "pk": 644,
   "fields": {
      "numero": 644
   }
},
 {
   "model": "app.Numeros",
   "pk": 645,
   "fields": {
      "numero": 645
   }
},
 {
   "model": "app.Numeros",
   "pk": 646,
   "fields": {
      "numero": 646
   }
},
 {
   "model": "app.Numeros",
   "pk": 647,
   "fields": {
      "numero": 647
   }
},
 {
   "model": "app.Numeros",
   "pk": 648,
   "fields": {
      "numero": 648
   }
},
 {
   "model": "app.Numeros",
   "pk": 649,
   "fields": {
      "numero": 649
   }
},
 {
   "model": "app.Numeros",
   "pk": 650,
   "fields": {
      "numero": 650
   }
},
 {
   "model": "app.Numeros",
   "pk": 651,
   "fields": {
      "numero": 651
   }
},
 {
   "model": "app.Numeros",
   "pk": 652,
   "fields": {
      "numero": 652
   }
},
 {
   "model": "app.Numeros",
   "pk": 653,
   "fields": {
      "numero": 653
   }
},
 {
   "model": "app.Numeros",
   "pk": 654,
   "fields": {
      "numero": 654
   }
},
 {
   "model": "app.Numeros",
   "pk": 655,
   "fields": {
      "numero": 655
   }
},
 {
   "model": "app.Numeros",
   "pk": 656,
   "fields": {
      "numero": 656
   }
},
 {
   "model": "app.Numeros",
   "pk": 657,
   "fields": {
      "numero": 657
   }
},
 {
   "model": "app.Numeros",
   "pk": 658,
   "fields": {
      "numero": 658
   }
},
 {
   "model": "app.Numeros",
   "pk": 659,
   "fields": {
      "numero": 659
   }
},
 {
   "model": "app.Numeros",
   "pk": 660,
   "fields": {
      "numero": 660
   }
},
 {
   "model": "app.Numeros",
   "pk": 661,
   "fields": {
      "numero": 661
   }
},
 {
   "model": "app.Numeros",
   "pk": 662,
   "fields": {
      "numero": 662
   }
},
 {
   "model": "app.Numeros",
   "pk": 663,
   "fields": {
      "numero": 663
   }
},
 {
   "model": "app.Numeros",
   "pk": 664,
   "fields": {
      "numero": 664
   }
},
 {
   "model": "app.Numeros",
   "pk": 665,
   "fields": {
      "numero": 665
   }
},
 {
   "model": "app.Numeros",
   "pk": 666,
   "fields": {
      "numero": 666
   }
},
 {
   "model": "app.Numeros",
   "pk": 667,
   "fields": {
      "numero": 667
   }
},
 {
   "model": "app.Numeros",
   "pk": 668,
   "fields": {
      "numero": 668
   }
},
 {
   "model": "app.Numeros",
   "pk": 669,
   "fields": {
      "numero": 669
   }
},
 {
   "model": "app.Numeros",
   "pk": 670,
   "fields": {
      "numero": 670
   }
},
 {
   "model": "app.Numeros",
   "pk": 671,
   "fields": {
      "numero": 671
   }
},
 {
   "model": "app.Numeros",
   "pk": 672,
   "fields": {
      "numero": 672
   }
},
 {
   "model": "app.Numeros",
   "pk": 673,
   "fields": {
      "numero": 673
   }
},
 {
   "model": "app.Numeros",
   "pk": 674,
   "fields": {
      "numero": 674
   }
},
 {
   "model": "app.Numeros",
   "pk": 675,
   "fields": {
      "numero": 675
   }
},
 {
   "model": "app.Numeros",
   "pk": 676,
   "fields": {
      "numero": 676
   }
},
 {
   "model": "app.Numeros",
   "pk": 677,
   "fields": {
      "numero": 677
   }
},
 {
   "model": "app.Numeros",
   "pk": 678,
   "fields": {
      "numero": 678
   }
},
 {
   "model": "app.Numeros",
   "pk": 679,
   "fields": {
      "numero": 679
   }
},
 {
   "model": "app.Numeros",
   "pk": 680,
   "fields": {
      "numero": 680
   }
},
 {
   "model": "app.Numeros",
   "pk": 681,
   "fields": {
      "numero": 681
   }
},
 {
   "model": "app.Numeros",
   "pk": 682,
   "fields": {
      "numero": 682
   }
},
 {
   "model": "app.Numeros",
   "pk": 683,
   "fields": {
      "numero": 683
   }
},
 {
   "model": "app.Numeros",
   "pk": 684,
   "fields": {
      "numero": 684
   }
},
 {
   "model": "app.Numeros",
   "pk": 685,
   "fields": {
      "numero": 685
   }
},
 {
   "model": "app.Numeros",
   "pk": 686,
   "fields": {
      "numero": 686
   }
},
 {
   "model": "app.Numeros",
   "pk": 687,
   "fields": {
      "numero": 687
   }
},
 {
   "model": "app.Numeros",
   "pk": 688,
   "fields": {
      "numero": 688
   }
},
 {
   "model": "app.Numeros",
   "pk": 689,
   "fields": {
      "numero": 689
   }
},
 {
   "model": "app.Numeros",
   "pk": 690,
   "fields": {
      "numero": 690
   }
},
 {
   "model": "app.Numeros",
   "pk": 691,
   "fields": {
      "numero": 691
   }
},
 {
   "model": "app.Numeros",
   "pk": 692,
   "fields": {
      "numero": 692
   }
},
 {
   "model": "app.Numeros",
   "pk": 693,
   "fields": {
      "numero": 693
   }
},
 {
   "model": "app.Numeros",
   "pk": 694,
   "fields": {
      "numero": 694
   }
},
 {
   "model": "app.Numeros",
   "pk": 695,
   "fields": {
      "numero": 695
   }
},
 {
   "model": "app.Numeros",
   "pk": 696,
   "fields": {
      "numero": 696
   }
},
 {
   "model": "app.Numeros",
   "pk": 697,
   "fields": {
      "numero": 697
   }
},
 {
   "model": "app.Numeros",
   "pk": 698,
   "fields": {
      "numero": 698
   }
},
 {
   "model": "app.Numeros",
   "pk": 699,
   "fields": {
      "numero": 699
   }
},
 {
   "model": "app.Numeros",
   "pk": 700,
   "fields": {
      "numero": 700
   }
},
 {
   "model": "app.Numeros",
   "pk": 701,
   "fields": {
      "numero": 701
   }
},
 {
   "model": "app.Numeros",
   "pk": 702,
   "fields": {
      "numero": 702
   }
},
 {
   "model": "app.Numeros",
   "pk": 703,
   "fields": {
      "numero": 703
   }
},
 {
   "model": "app.Numeros",
   "pk": 704,
   "fields": {
      "numero": 704
   }
},
 {
   "model": "app.Numeros",
   "pk": 705,
   "fields": {
      "numero": 705
   }
},
 {
   "model": "app.Numeros",
   "pk": 706,
   "fields": {
      "numero": 706
   }
},
 {
   "model": "app.Numeros",
   "pk": 707,
   "fields": {
      "numero": 707
   }
},
 {
   "model": "app.Numeros",
   "pk": 708,
   "fields": {
      "numero": 708
   }
},
 {
   "model": "app.Numeros",
   "pk": 709,
   "fields": {
      "numero": 709
   }
},
 {
   "model": "app.Numeros",
   "pk": 710,
   "fields": {
      "numero": 710
   }
},
 {
   "model": "app.Numeros",
   "pk": 711,
   "fields": {
      "numero": 711
   }
},
 {
   "model": "app.Numeros",
   "pk": 712,
   "fields": {
      "numero": 712
   }
},
 {
   "model": "app.Numeros",
   "pk": 713,
   "fields": {
      "numero": 713
   }
},
 {
   "model": "app.Numeros",
   "pk": 714,
   "fields": {
      "numero": 714
   }
},
 {
   "model": "app.Numeros",
   "pk": 715,
   "fields": {
      "numero": 715
   }
},
 {
   "model": "app.Numeros",
   "pk": 716,
   "fields": {
      "numero": 716
   }
},
 {
   "model": "app.Numeros",
   "pk": 717,
   "fields": {
      "numero": 717
   }
},
 {
   "model": "app.Numeros",
   "pk": 718,
   "fields": {
      "numero": 718
   }
},
 {
   "model": "app.Numeros",
   "pk": 719,
   "fields": {
      "numero": 719
   }
},
 {
   "model": "app.Numeros",
   "pk": 720,
   "fields": {
      "numero": 720
   }
},
 {
   "model": "app.Numeros",
   "pk": 721,
   "fields": {
      "numero": 721
   }
},
 {
   "model": "app.Numeros",
   "pk": 722,
   "fields": {
      "numero": 722
   }
},
 {
   "model": "app.Numeros",
   "pk": 723,
   "fields": {
      "numero": 723
   }
},
 {
   "model": "app.Numeros",
   "pk": 724,
   "fields": {
      "numero": 724
   }
},
 {
   "model": "app.Numeros",
   "pk": 725,
   "fields": {
      "numero": 725
   }
},
 {
   "model": "app.Numeros",
   "pk": 726,
   "fields": {
      "numero": 726
   }
},
 {
   "model": "app.Numeros",
   "pk": 727,
   "fields": {
      "numero": 727
   }
},
 {
   "model": "app.Numeros",
   "pk": 728,
   "fields": {
      "numero": 728
   }
},
 {
   "model": "app.Numeros",
   "pk": 729,
   "fields": {
      "numero": 729
   }
},
 {
   "model": "app.Numeros",
   "pk": 730,
   "fields": {
      "numero": 730
   }
},
 {
   "model": "app.Numeros",
   "pk": 731,
   "fields": {
      "numero": 731
   }
},
 {
   "model": "app.Numeros",
   "pk": 732,
   "fields": {
      "numero": 732
   }
},
 {
   "model": "app.Numeros",
   "pk": 733,
   "fields": {
      "numero": 733
   }
},
 {
   "model": "app.Numeros",
   "pk": 734,
   "fields": {
      "numero": 734
   }
},
 {
   "model": "app.Numeros",
   "pk": 735,
   "fields": {
      "numero": 735
   }
},
 {
   "model": "app.Numeros",
   "pk": 736,
   "fields": {
      "numero": 736
   }
},
 {
   "model": "app.Numeros",
   "pk": 737,
   "fields": {
      "numero": 737
   }
},
 {
   "model": "app.Numeros",
   "pk": 738,
   "fields": {
      "numero": 738
   }
},
 {
   "model": "app.Numeros",
   "pk": 739,
   "fields": {
      "numero": 739
   }
},
 {
   "model": "app.Numeros",
   "pk": 740,
   "fields": {
      "numero": 740
   }
},
 {
   "model": "app.Numeros",
   "pk": 741,
   "fields": {
      "numero": 741
   }
},
 {
   "model": "app.Numeros",
   "pk": 742,
   "fields": {
      "numero": 742
   }
},
 {
   "model": "app.Numeros",
   "pk": 743,
   "fields": {
      "numero": 743
   }
},
 {
   "model": "app.Numeros",
   "pk": 744,
   "fields": {
      "numero": 744
   }
},
 {
   "model": "app.Numeros",
   "pk": 745,
   "fields": {
      "numero": 745
   }
},
 {
   "model": "app.Numeros",
   "pk": 746,
   "fields": {
      "numero": 746
   }
},
 {
   "model": "app.Numeros",
   "pk": 747,
   "fields": {
      "numero": 747
   }
},
 {
   "model": "app.Numeros",
   "pk": 748,
   "fields": {
      "numero": 748
   }
},
 {
   "model": "app.Numeros",
   "pk": 749,
   "fields": {
      "numero": 749
   }
},
 {
   "model": "app.Numeros",
   "pk": 750,
   "fields": {
      "numero": 750
   }
},
 {
   "model": "app.Numeros",
   "pk": 751,
   "fields": {
      "numero": 751
   }
},
 {
   "model": "app.Numeros",
   "pk": 752,
   "fields": {
      "numero": 752
   }
},
 {
   "model": "app.Numeros",
   "pk": 753,
   "fields": {
      "numero": 753
   }
},
 {
   "model": "app.Numeros",
   "pk": 754,
   "fields": {
      "numero": 754
   }
},
 {
   "model": "app.Numeros",
   "pk": 755,
   "fields": {
      "numero": 755
   }
},
 {
   "model": "app.Numeros",
   "pk": 756,
   "fields": {
      "numero": 756
   }
},
 {
   "model": "app.Numeros",
   "pk": 757,
   "fields": {
      "numero": 757
   }
},
 {
   "model": "app.Numeros",
   "pk": 758,
   "fields": {
      "numero": 758
   }
},
 {
   "model": "app.Numeros",
   "pk": 759,
   "fields": {
      "numero": 759
   }
},
 {
   "model": "app.Numeros",
   "pk": 760,
   "fields": {
      "numero": 760
   }
},
 {
   "model": "app.Numeros",
   "pk": 761,
   "fields": {
      "numero": 761
   }
},
 {
   "model": "app.Numeros",
   "pk": 762,
   "fields": {
      "numero": 762
   }
},
 {
   "model": "app.Numeros",
   "pk": 763,
   "fields": {
      "numero": 763
   }
},
 {
   "model": "app.Numeros",
   "pk": 764,
   "fields": {
      "numero": 764
   }
},
 {
   "model": "app.Numeros",
   "pk": 765,
   "fields": {
      "numero": 765
   }
},
 {
   "model": "app.Numeros",
   "pk": 766,
   "fields": {
      "numero": 766
   }
},
 {
   "model": "app.Numeros",
   "pk": 767,
   "fields": {
      "numero": 767
   }
},
 {
   "model": "app.Numeros",
   "pk": 768,
   "fields": {
      "numero": 768
   }
},
 {
   "model": "app.Numeros",
   "pk": 769,
   "fields": {
      "numero": 769
   }
},
 {
   "model": "app.Numeros",
   "pk": 770,
   "fields": {
      "numero": 770
   }
},
 {
   "model": "app.Numeros",
   "pk": 771,
   "fields": {
      "numero": 771
   }
},
 {
   "model": "app.Numeros",
   "pk": 772,
   "fields": {
      "numero": 772
   }
},
 {
   "model": "app.Numeros",
   "pk": 773,
   "fields": {
      "numero": 773
   }
},
 {
   "model": "app.Numeros",
   "pk": 774,
   "fields": {
      "numero": 774
   }
},
 {
   "model": "app.Numeros",
   "pk": 775,
   "fields": {
      "numero": 775
   }
},
 {
   "model": "app.Numeros",
   "pk": 776,
   "fields": {
      "numero": 776
   }
},
 {
   "model": "app.Numeros",
   "pk": 777,
   "fields": {
      "numero": 777
   }
},
 {
   "model": "app.Numeros",
   "pk": 778,
   "fields": {
      "numero": 778
   }
},
 {
   "model": "app.Numeros",
   "pk": 779,
   "fields": {
      "numero": 779
   }
},
 {
   "model": "app.Numeros",
   "pk": 780,
   "fields": {
      "numero": 780
   }
},
 {
   "model": "app.Numeros",
   "pk": 781,
   "fields": {
      "numero": 781
   }
},
 {
   "model": "app.Numeros",
   "pk": 782,
   "fields": {
      "numero": 782
   }
},
 {
   "model": "app.Numeros",
   "pk": 783,
   "fields": {
      "numero": 783
   }
},
 {
   "model": "app.Numeros",
   "pk": 784,
   "fields": {
      "numero": 784
   }
},
 {
   "model": "app.Numeros",
   "pk": 785,
   "fields": {
      "numero": 785
   }
},
 {
   "model": "app.Numeros",
   "pk": 786,
   "fields": {
      "numero": 786
   }
},
 {
   "model": "app.Numeros",
   "pk": 787,
   "fields": {
      "numero": 787
   }
},
 {
   "model": "app.Numeros",
   "pk": 788,
   "fields": {
      "numero": 788
   }
},
 {
   "model": "app.Numeros",
   "pk": 789,
   "fields": {
      "numero": 789
   }
},
 {
   "model": "app.Numeros",
   "pk": 790,
   "fields": {
      "numero": 790
   }
},
 {
   "model": "app.Numeros",
   "pk": 791,
   "fields": {
      "numero": 791
   }
},
 {
   "model": "app.Numeros",
   "pk": 792,
   "fields": {
      "numero": 792
   }
},
 {
   "model": "app.Numeros",
   "pk": 793,
   "fields": {
      "numero": 793
   }
},
 {
   "model": "app.Numeros",
   "pk": 794,
   "fields": {
      "numero": 794
   }
},
 {
   "model": "app.Numeros",
   "pk": 795,
   "fields": {
      "numero": 795
   }
},
 {
   "model": "app.Numeros",
   "pk": 796,
   "fields": {
      "numero": 796
   }
},
 {
   "model": "app.Numeros",
   "pk": 797,
   "fields": {
      "numero": 797
   }
},
 {
   "model": "app.Numeros",
   "pk": 798,
   "fields": {
      "numero": 798
   }
},
 {
   "model": "app.Numeros",
   "pk": 799,
   "fields": {
      "numero": 799
   }
},
 {
   "model": "app.Numeros",
   "pk": 800,
   "fields": {
      "numero": 800
   }
},
 {
   "model": "app.Numeros",
   "pk": 801,
   "fields": {
      "numero": 801
   }
},
 {
   "model": "app.Numeros",
   "pk": 802,
   "fields": {
      "numero": 802
   }
},
 {
   "model": "app.Numeros",
   "pk": 803,
   "fields": {
      "numero": 803
   }
},
 {
   "model": "app.Numeros",
   "pk": 804,
   "fields": {
      "numero": 804
   }
},
 {
   "model": "app.Numeros",
   "pk": 805,
   "fields": {
      "numero": 805
   }
},
 {
   "model": "app.Numeros",
   "pk": 806,
   "fields": {
      "numero": 806
   }
},
 {
   "model": "app.Numeros",
   "pk": 807,
   "fields": {
      "numero": 807
   }
},
 {
   "model": "app.Numeros",
   "pk": 808,
   "fields": {
      "numero": 808
   }
},
 {
   "model": "app.Numeros",
   "pk": 809,
   "fields": {
      "numero": 809
   }
},
 {
   "model": "app.Numeros",
   "pk": 810,
   "fields": {
      "numero": 810
   }
},
 {
   "model": "app.Numeros",
   "pk": 811,
   "fields": {
      "numero": 811
   }
},
 {
   "model": "app.Numeros",
   "pk": 812,
   "fields": {
      "numero": 812
   }
},
 {
   "model": "app.Numeros",
   "pk": 813,
   "fields": {
      "numero": 813
   }
},
 {
   "model": "app.Numeros",
   "pk": 814,
   "fields": {
      "numero": 814
   }
},
 {
   "model": "app.Numeros",
   "pk": 815,
   "fields": {
      "numero": 815
   }
},
 {
   "model": "app.Numeros",
   "pk": 816,
   "fields": {
      "numero": 816
   }
},
 {
   "model": "app.Numeros",
   "pk": 817,
   "fields": {
      "numero": 817
   }
},
 {
   "model": "app.Numeros",
   "pk": 818,
   "fields": {
      "numero": 818
   }
},
 {
   "model": "app.Numeros",
   "pk": 819,
   "fields": {
      "numero": 819
   }
},
 {
   "model": "app.Numeros",
   "pk": 820,
   "fields": {
      "numero": 820
   }
},
 {
   "model": "app.Numeros",
   "pk": 821,
   "fields": {
      "numero": 821
   }
},
 {
   "model": "app.Numeros",
   "pk": 822,
   "fields": {
      "numero": 822
   }
},
 {
   "model": "app.Numeros",
   "pk": 823,
   "fields": {
      "numero": 823
   }
},
 {
   "model": "app.Numeros",
   "pk": 824,
   "fields": {
      "numero": 824
   }
},
 {
   "model": "app.Numeros",
   "pk": 825,
   "fields": {
      "numero": 825
   }
},
 {
   "model": "app.Numeros",
   "pk": 826,
   "fields": {
      "numero": 826
   }
},
 {
   "model": "app.Numeros",
   "pk": 827,
   "fields": {
      "numero": 827
   }
},
 {
   "model": "app.Numeros",
   "pk": 828,
   "fields": {
      "numero": 828
   }
},
 {
   "model": "app.Numeros",
   "pk": 829,
   "fields": {
      "numero": 829
   }
},
 {
   "model": "app.Numeros",
   "pk": 830,
   "fields": {
      "numero": 830
   }
},
 {
   "model": "app.Numeros",
   "pk": 831,
   "fields": {
      "numero": 831
   }
},
 {
   "model": "app.Numeros",
   "pk": 832,
   "fields": {
      "numero": 832
   }
},
 {
   "model": "app.Numeros",
   "pk": 833,
   "fields": {
      "numero": 833
   }
},
 {
   "model": "app.Numeros",
   "pk": 834,
   "fields": {
      "numero": 834
   }
},
 {
   "model": "app.Numeros",
   "pk": 835,
   "fields": {
      "numero": 835
   }
},
 {
   "model": "app.Numeros",
   "pk": 836,
   "fields": {
      "numero": 836
   }
},
 {
   "model": "app.Numeros",
   "pk": 837,
   "fields": {
      "numero": 837
   }
},
 {
   "model": "app.Numeros",
   "pk": 838,
   "fields": {
      "numero": 838
   }
},
 {
   "model": "app.Numeros",
   "pk": 839,
   "fields": {
      "numero": 839
   }
},
 {
   "model": "app.Numeros",
   "pk": 840,
   "fields": {
      "numero": 840
   }
},
 {
   "model": "app.Numeros",
   "pk": 841,
   "fields": {
      "numero": 841
   }
},
 {
   "model": "app.Numeros",
   "pk": 842,
   "fields": {
      "numero": 842
   }
},
 {
   "model": "app.Numeros",
   "pk": 843,
   "fields": {
      "numero": 843
   }
},
 {
   "model": "app.Numeros",
   "pk": 844,
   "fields": {
      "numero": 844
   }
},
 {
   "model": "app.Numeros",
   "pk": 845,
   "fields": {
      "numero": 845
   }
},
 {
   "model": "app.Numeros",
   "pk": 846,
   "fields": {
      "numero": 846
   }
},
 {
   "model": "app.Numeros",
   "pk": 847,
   "fields": {
      "numero": 847
   }
},
 {
   "model": "app.Numeros",
   "pk": 848,
   "fields": {
      "numero": 848
   }
},
 {
   "model": "app.Numeros",
   "pk": 849,
   "fields": {
      "numero": 849
   }
},
 {
   "model": "app.Numeros",
   "pk": 850,
   "fields": {
      "numero": 850
   }
},
 {
   "model": "app.Numeros",
   "pk": 851,
   "fields": {
      "numero": 851
   }
},
 {
   "model": "app.Numeros",
   "pk": 852,
   "fields": {
      "numero": 852
   }
},
 {
   "model": "app.Numeros",
   "pk": 853,
   "fields": {
      "numero": 853
   }
},
 {
   "model": "app.Numeros",
   "pk": 854,
   "fields": {
      "numero": 854
   }
},
 {
   "model": "app.Numeros",
   "pk": 855,
   "fields": {
      "numero": 855
   }
},
 {
   "model": "app.Numeros",
   "pk": 856,
   "fields": {
      "numero": 856
   }
},
 {
   "model": "app.Numeros",
   "pk": 857,
   "fields": {
      "numero": 857
   }
},
 {
   "model": "app.Numeros",
   "pk": 858,
   "fields": {
      "numero": 858
   }
},
 {
   "model": "app.Numeros",
   "pk": 859,
   "fields": {
      "numero": 859
   }
},
 {
   "model": "app.Numeros",
   "pk": 860,
   "fields": {
      "numero": 860
   }
},
 {
   "model": "app.Numeros",
   "pk": 861,
   "fields": {
      "numero": 861
   }
},
 {
   "model": "app.Numeros",
   "pk": 862,
   "fields": {
      "numero": 862
   }
},
 {
   "model": "app.Numeros",
   "pk": 863,
   "fields": {
      "numero": 863
   }
},
 {
   "model": "app.Numeros",
   "pk": 864,
   "fields": {
      "numero": 864
   }
},
 {
   "model": "app.Numeros",
   "pk": 865,
   "fields": {
      "numero": 865
   }
},
 {
   "model": "app.Numeros",
   "pk": 866,
   "fields": {
      "numero": 866
   }
},
 {
   "model": "app.Numeros",
   "pk": 867,
   "fields": {
      "numero": 867
   }
},
 {
   "model": "app.Numeros",
   "pk": 868,
   "fields": {
      "numero": 868
   }
},
 {
   "model": "app.Numeros",
   "pk": 869,
   "fields": {
      "numero": 869
   }
},
 {
   "model": "app.Numeros",
   "pk": 870,
   "fields": {
      "numero": 870
   }
},
 {
   "model": "app.Numeros",
   "pk": 871,
   "fields": {
      "numero": 871
   }
},
 {
   "model": "app.Numeros",
   "pk": 872,
   "fields": {
      "numero": 872
   }
},
 {
   "model": "app.Numeros",
   "pk": 873,
   "fields": {
      "numero": 873
   }
},
 {
   "model": "app.Numeros",
   "pk": 874,
   "fields": {
      "numero": 874
   }
},
 {
   "model": "app.Numeros",
   "pk": 875,
   "fields": {
      "numero": 875
   }
},
 {
   "model": "app.Numeros",
   "pk": 876,
   "fields": {
      "numero": 876
   }
},
 {
   "model": "app.Numeros",
   "pk": 877,
   "fields": {
      "numero": 877
   }
},
 {
   "model": "app.Numeros",
   "pk": 878,
   "fields": {
      "numero": 878
   }
},
 {
   "model": "app.Numeros",
   "pk": 879,
   "fields": {
      "numero": 879
   }
},
 {
   "model": "app.Numeros",
   "pk": 880,
   "fields": {
      "numero": 880
   }
},
 {
   "model": "app.Numeros",
   "pk": 881,
   "fields": {
      "numero": 881
   }
},
 {
   "model": "app.Numeros",
   "pk": 882,
   "fields": {
      "numero": 882
   }
},
 {
   "model": "app.Numeros",
   "pk": 883,
   "fields": {
      "numero": 883
   }
},
 {
   "model": "app.Numeros",
   "pk": 884,
   "fields": {
      "numero": 884
   }
},
 {
   "model": "app.Numeros",
   "pk": 885,
   "fields": {
      "numero": 885
   }
},
 {
   "model": "app.Numeros",
   "pk": 886,
   "fields": {
      "numero": 886
   }
},
 {
   "model": "app.Numeros",
   "pk": 887,
   "fields": {
      "numero": 887
   }
},
 {
   "model": "app.Numeros",
   "pk": 888,
   "fields": {
      "numero": 888
   }
},
 {
   "model": "app.Numeros",
   "pk": 889,
   "fields": {
      "numero": 889
   }
},
 {
   "model": "app.Numeros",
   "pk": 890,
   "fields": {
      "numero": 890
   }
},
 {
   "model": "app.Numeros",
   "pk": 891,
   "fields": {
      "numero": 891
   }
},
 {
   "model": "app.Numeros",
   "pk": 892,
   "fields": {
      "numero": 892
   }
},
 {
   "model": "app.Numeros",
   "pk": 893,
   "fields": {
      "numero": 893
   }
},
 {
   "model": "app.Numeros",
   "pk": 894,
   "fields": {
      "numero": 894
   }
},
 {
   "model": "app.Numeros",
   "pk": 895,
   "fields": {
      "numero": 895
   }
},
 {
   "model": "app.Numeros",
   "pk": 896,
   "fields": {
      "numero": 896
   }
},
 {
   "model": "app.Numeros",
   "pk": 897,
   "fields": {
      "numero": 897
   }
},
 {
   "model": "app.Numeros",
   "pk": 898,
   "fields": {
      "numero": 898
   }
},
 {
   "model": "app.Numeros",
   "pk": 899,
   "fields": {
      "numero": 899
   }
},
 {
   "model": "app.Numeros",
   "pk": 900,
   "fields": {
      "numero": 900
   }
},
 {
   "model": "app.Numeros",
   "pk": 901,
   "fields": {
      "numero": 901
   }
},
 {
   "model": "app.Numeros",
   "pk": 902,
   "fields": {
      "numero": 902
   }
},
 {
   "model": "app.Numeros",
   "pk": 903,
   "fields": {
      "numero": 903
   }
},
 {
   "model": "app.Numeros",
   "pk": 904,
   "fields": {
      "numero": 904
   }
},
 {
   "model": "app.Numeros",
   "pk": 905,
   "fields": {
      "numero": 905
   }
},
 {
   "model": "app.Numeros",
   "pk": 906,
   "fields": {
      "numero": 906
   }
},
 {
   "model": "app.Numeros",
   "pk": 907,
   "fields": {
      "numero": 907
   }
},
 {
   "model": "app.Numeros",
   "pk": 908,
   "fields": {
      "numero": 908
   }
},
 {
   "model": "app.Numeros",
   "pk": 909,
   "fields": {
      "numero": 909
   }
},
 {
   "model": "app.Numeros",
   "pk": 910,
   "fields": {
      "numero": 910
   }
},
 {
   "model": "app.Numeros",
   "pk": 911,
   "fields": {
      "numero": 911
   }
},
 {
   "model": "app.Numeros",
   "pk": 912,
   "fields": {
      "numero": 912
   }
},
 {
   "model": "app.Numeros",
   "pk": 913,
   "fields": {
      "numero": 913
   }
},
 {
   "model": "app.Numeros",
   "pk": 914,
   "fields": {
      "numero": 914
   }
},
 {
   "model": "app.Numeros",
   "pk": 915,
   "fields": {
      "numero": 915
   }
},
 {
   "model": "app.Numeros",
   "pk": 916,
   "fields": {
      "numero": 916
   }
},
 {
   "model": "app.Numeros",
   "pk": 917,
   "fields": {
      "numero": 917
   }
},
 {
   "model": "app.Numeros",
   "pk": 918,
   "fields": {
      "numero": 918
   }
},
 {
   "model": "app.Numeros",
   "pk": 919,
   "fields": {
      "numero": 919
   }
},
 {
   "model": "app.Numeros",
   "pk": 920,
   "fields": {
      "numero": 920
   }
},
 {
   "model": "app.Numeros",
   "pk": 921,
   "fields": {
      "numero": 921
   }
},
 {
   "model": "app.Numeros",
   "pk": 922,
   "fields": {
      "numero": 922
   }
},
 {
   "model": "app.Numeros",
   "pk": 923,
   "fields": {
      "numero": 923
   }
},
 {
   "model": "app.Numeros",
   "pk": 924,
   "fields": {
      "numero": 924
   }
},
 {
   "model": "app.Numeros",
   "pk": 925,
   "fields": {
      "numero": 925
   }
},
 {
   "model": "app.Numeros",
   "pk": 926,
   "fields": {
      "numero": 926
   }
},
 {
   "model": "app.Numeros",
   "pk": 927,
   "fields": {
      "numero": 927
   }
},
 {
   "model": "app.Numeros",
   "pk": 928,
   "fields": {
      "numero": 928
   }
},
 {
   "model": "app.Numeros",
   "pk": 929,
   "fields": {
      "numero": 929
   }
},
 {
   "model": "app.Numeros",
   "pk": 930,
   "fields": {
      "numero": 930
   }
},
 {
   "model": "app.Numeros",
   "pk": 931,
   "fields": {
      "numero": 931
   }
},
 {
   "model": "app.Numeros",
   "pk": 932,
   "fields": {
      "numero": 932
   }
},
 {
   "model": "app.Numeros",
   "pk": 933,
   "fields": {
      "numero": 933
   }
},
 {
   "model": "app.Numeros",
   "pk": 934,
   "fields": {
      "numero": 934
   }
},
 {
   "model": "app.Numeros",
   "pk": 935,
   "fields": {
      "numero": 935
   }
},
 {
   "model": "app.Numeros",
   "pk": 936,
   "fields": {
      "numero": 936
   }
},
 {
   "model": "app.Numeros",
   "pk": 937,
   "fields": {
      "numero": 937
   }
},
 {
   "model": "app.Numeros",
   "pk": 938,
   "fields": {
      "numero": 938
   }
},
 {
   "model": "app.Numeros",
   "pk": 939,
   "fields": {
      "numero": 939
   }
},
 {
   "model": "app.Numeros",
   "pk": 940,
   "fields": {
      "numero": 940
   }
},
 {
   "model": "app.Numeros",
   "pk": 941,
   "fields": {
      "numero": 941
   }
},
 {
   "model": "app.Numeros",
   "pk": 942,
   "fields": {
      "numero": 942
   }
},
 {
   "model": "app.Numeros",
   "pk": 943,
   "fields": {
      "numero": 943
   }
},
 {
   "model": "app.Numeros",
   "pk": 944,
   "fields": {
      "numero": 944
   }
},
 {
   "model": "app.Numeros",
   "pk": 945,
   "fields": {
      "numero": 945
   }
},
 {
   "model": "app.Numeros",
   "pk": 946,
   "fields": {
      "numero": 946
   }
},
 {
   "model": "app.Numeros",
   "pk": 947,
   "fields": {
      "numero": 947
   }
},
 {
   "model": "app.Numeros",
   "pk": 948,
   "fields": {
      "numero": 948
   }
},
 {
   "model": "app.Numeros",
   "pk": 949,
   "fields": {
      "numero": 949
   }
},
 {
   "model": "app.Numeros",
   "pk": 950,
   "fields": {
      "numero": 950
   }
},
 {
   "model": "app.Numeros",
   "pk": 951,
   "fields": {
      "numero": 951
   }
},
 {
   "model": "app.Numeros",
   "pk": 952,
   "fields": {
      "numero": 952
   }
},
 {
   "model": "app.Numeros",
   "pk": 953,
   "fields": {
      "numero": 953
   }
},
 {
   "model": "app.Numeros",
   "pk": 954,
   "fields": {
      "numero": 954
   }
},
 {
   "model": "app.Numeros",
   "pk": 955,
   "fields": {
      "numero": 955
   }
},
 {
   "model": "app.Numeros",
   "pk": 956,
   "fields": {
      "numero": 956
   }
},
 {
   "model": "app.Numeros",
   "pk": 957,
   "fields": {
      "numero": 957
   }
},
 {
   "model": "app.Numeros",
   "pk": 958,
   "fields": {
      "numero": 958
   }
},
 {
   "model": "app.Numeros",
   "pk": 959,
   "fields": {
      "numero": 959
   }
},
 {
   "model": "app.Numeros",
   "pk": 960,
   "fields": {
      "numero": 960
   }
},
 {
   "model": "app.Numeros",
   "pk": 961,
   "fields": {
      "numero": 961
   }
},
 {
   "model": "app.Numeros",
   "pk": 962,
   "fields": {
      "numero": 962
   }
},
 {
   "model": "app.Numeros",
   "pk": 963,
   "fields": {
      "numero": 963
   }
},
 {
   "model": "app.Numeros",
   "pk": 964,
   "fields": {
      "numero": 964
   }
},
 {
   "model": "app.Numeros",
   "pk": 965,
   "fields": {
      "numero": 965
   }
},
 {
   "model": "app.Numeros",
   "pk": 966,
   "fields": {
      "numero": 966
   }
},
 {
   "model": "app.Numeros",
   "pk": 967,
   "fields": {
      "numero": 967
   }
},
 {
   "model": "app.Numeros",
   "pk": 968,
   "fields": {
      "numero": 968
   }
},
 {
   "model": "app.Numeros",
   "pk": 969,
   "fields": {
      "numero": 969
   }
},
 {
   "model": "app.Numeros",
   "pk": 970,
   "fields": {
      "numero": 970
   }
},
 {
   "model": "app.Numeros",
   "pk": 971,
   "fields": {
      "numero": 971
   }
},
 {
   "model": "app.Numeros",
   "pk": 972,
   "fields": {
      "numero": 972
   }
},
 {
   "model": "app.Numeros",
   "pk": 973,
   "fields": {
      "numero": 973
   }
},
 {
   "model": "app.Numeros",
   "pk": 974,
   "fields": {
      "numero": 974
   }
},
 {
   "model": "app.Numeros",
   "pk": 975,
   "fields": {
      "numero": 975
   }
},
 {
   "model": "app.Numeros",
   "pk": 976,
   "fields": {
      "numero": 976
   }
},
 {
   "model": "app.Numeros",
   "pk": 977,
   "fields": {
      "numero": 977
   }
},
 {
   "model": "app.Numeros",
   "pk": 978,
   "fields": {
      "numero": 978
   }
},
 {
   "model": "app.Numeros",
   "pk": 979,
   "fields": {
      "numero": 979
   }
},
 {
   "model": "app.Numeros",
   "pk": 980,
   "fields": {
      "numero": 980
   }
},
 {
   "model": "app.Numeros",
   "pk": 981,
   "fields": {
      "numero": 981
   }
},
 {
   "model": "app.Numeros",
   "pk": 982,
   "fields": {
      "numero": 982
   }
},
 {
   "model": "app.Numeros",
   "pk": 983,
   "fields": {
      "numero": 983
   }
},
 {
   "model": "app.Numeros",
   "pk": 984,
   "fields": {
      "numero": 984
   }
},
 {
   "model": "app.Numeros",
   "pk": 985,
   "fields": {
      "numero": 985
   }
},
 {
   "model": "app.Numeros",
   "pk": 986,
   "fields": {
      "numero": 986
   }
},
 {
   "model": "app.Numeros",
   "pk": 987,
   "fields": {
      "numero": 987
   }
},
 {
   "model": "app.Numeros",
   "pk": 988,
   "fields": {
      "numero": 988
   }
},
 {
   "model": "app.Numeros",
   "pk": 989,
   "fields": {
      "numero": 989
   }
},
 {
   "model": "app.Numeros",
   "pk": 990,
   "fields": {
      "numero": 990
   }
},
 {
   "model": "app.Numeros",
   "pk": 991,
   "fields": {
      "numero": 991
   }
},
 {
   "model": "app.Numeros",
   "pk": 992,
   "fields": {
      "numero": 992
   }
},
 {
   "model": "app.Numeros",
   "pk": 993,
   "fields": {
      "numero": 993
   }
},
 {
   "model": "app.Numeros",
   "pk": 994,
   "fields": {
      "numero": 994
   }
},
 {
   "model": "app.Numeros",
   "pk": 995,
   "fields": {
      "numero": 995
   }
},
 {
   "model": "app.Numeros",
   "pk": 996,
   "fields": {
      "numero": 996
   }
},
 {
   "model": "app.Numeros",
   "pk": 997,
   "fields": {
      "numero": 997
   }
},
 {
   "model": "app.Numeros",
   "pk": 998,
   "fields": {
      "numero": 998
   }
},
 {
   "model": "app.Numeros",
   "pk": 999,
   "fields": {
      "numero": 999
   }
},
 {
   "model": "app.Numeros",
   "pk": 1000,
   "fields": {
      "numero": 1000
   }
}
]
